<?xml version="1.0"?>
<!DOCTYPE svg PUBLIC '-//W3C//DTD SVG 1.0//EN'
          'http://www.w3.org/TR/2001/REC-SVG-20010904/DTD/svg10.dtd'>
<svg xmlns:xlink="http://www.w3.org/1999/xlink" style="fill-opacity:1; color-rendering:auto; color-interpolation:auto; text-rendering:auto; stroke:black; stroke-linecap:square; stroke-miterlimit:10; shape-rendering:auto; stroke-opacity:1; fill:black; stroke-dasharray:none; font-weight:normal; stroke-width:1; font-family:'Dialog'; font-style:normal; stroke-linejoin:miter; font-size:12px; stroke-dashoffset:0; image-rendering:auto;" width="560" height="420" xmlns="http://www.w3.org/2000/svg"
><!--Generated by the Batik Graphics2D SVG Generator--><defs id="genericDefs"
  /><g
  ><defs id="defs1"
    ><clipPath clipPathUnits="userSpaceOnUse" id="clipPath1"
      ><path d="M0 0 L560 0 L560 420 L0 420 L0 0 Z"
      /></clipPath
    ></defs
    ><g style="fill:white; stroke:white;"
    ><rect x="0" y="0" width="560" style="clip-path:url(#clipPath1); stroke:none;" height="420"
    /></g
    ><g style="fill:white; text-rendering:optimizeSpeed; color-rendering:optimizeSpeed; image-rendering:optimizeSpeed; shape-rendering:crispEdges; stroke:white; color-interpolation:sRGB;"
    ><rect x="0" width="560" height="420" y="0" style="stroke:none;"
      /><path style="stroke:none;" d="M73 374 L507 374 L507 31 L73 31 Z"
    /></g
    ><g style="stroke-linecap:butt; fill-opacity:0.149; fill:rgb(38,38,38); text-rendering:geometricPrecision; image-rendering:optimizeQuality; color-rendering:optimizeQuality; stroke-linejoin:round; stroke:rgb(38,38,38); color-interpolation:linearRGB; stroke-width:0.6667; stroke-opacity:0.149;"
    ><line y2="31" style="fill:none;" x1="73" x2="73" y1="374"
      /><line y2="31" style="fill:none;" x1="217.6667" x2="217.6667" y1="374"
      /><line y2="31" style="fill:none;" x1="362.3333" x2="362.3333" y1="374"
      /><line y2="31" style="fill:none;" x1="507" x2="507" y1="374"
      /><line y2="374" style="fill:none;" x1="507" x2="73" y1="374"
      /><line y2="316.8333" style="fill:none;" x1="507" x2="73" y1="316.8333"
      /><line y2="259.6667" style="fill:none;" x1="507" x2="73" y1="259.6667"
      /><line y2="202.5" style="fill:none;" x1="507" x2="73" y1="202.5"
      /><line y2="145.3333" style="fill:none;" x1="507" x2="73" y1="145.3333"
      /><line y2="88.1667" style="fill:none;" x1="507" x2="73" y1="88.1667"
      /><line y2="31" style="fill:none;" x1="507" x2="73" y1="31"
      /><line x1="73" x2="507" y1="374" style="stroke-linecap:square; fill-opacity:1; fill:none; stroke-opacity:1;" y2="374"
      /><line x1="73" x2="507" y1="31" style="stroke-linecap:square; fill-opacity:1; fill:none; stroke-opacity:1;" y2="31"
      /><line x1="73" x2="73" y1="374" style="stroke-linecap:square; fill-opacity:1; fill:none; stroke-opacity:1;" y2="369.66"
      /><line x1="217.6667" x2="217.6667" y1="374" style="stroke-linecap:square; fill-opacity:1; fill:none; stroke-opacity:1;" y2="369.66"
      /><line x1="362.3333" x2="362.3333" y1="374" style="stroke-linecap:square; fill-opacity:1; fill:none; stroke-opacity:1;" y2="369.66"
      /><line x1="507" x2="507" y1="374" style="stroke-linecap:square; fill-opacity:1; fill:none; stroke-opacity:1;" y2="369.66"
      /><line x1="73" x2="73" y1="31" style="stroke-linecap:square; fill-opacity:1; fill:none; stroke-opacity:1;" y2="35.34"
      /><line x1="217.6667" x2="217.6667" y1="31" style="stroke-linecap:square; fill-opacity:1; fill:none; stroke-opacity:1;" y2="35.34"
      /><line x1="362.3333" x2="362.3333" y1="31" style="stroke-linecap:square; fill-opacity:1; fill:none; stroke-opacity:1;" y2="35.34"
      /><line x1="507" x2="507" y1="31" style="stroke-linecap:square; fill-opacity:1; fill:none; stroke-opacity:1;" y2="35.34"
    /></g
    ><g transform="translate(73,379.3333)" style="font-size:13.3333px; fill:rgb(38,38,38); text-rendering:geometricPrecision; color-rendering:optimizeQuality; image-rendering:optimizeQuality; stroke:rgb(38,38,38); color-interpolation:linearRGB;"
    ><path style="stroke:none;" d="M-3.4531 9.4062 Q-3.4531 7.7656 -3.1172 6.7578 Q-2.7812 5.75 -2.1094 5.2031 Q-1.4375 4.6562 -0.4219 4.6562 Q0.3281 4.6562 0.8906 4.9609 Q1.4531 5.2656 1.8203 5.8281 Q2.1875 6.3906 2.3984 7.2109 Q2.6094 8.0312 2.6094 9.4062 Q2.6094 11.0469 2.2734 12.0547 Q1.9375 13.0625 1.2656 13.6094 Q0.5938 14.1562 -0.4219 14.1562 Q-1.7656 14.1562 -2.5469 13.1875 Q-3.4531 12.0312 -3.4531 9.4062 ZM-2.2812 9.4062 Q-2.2812 11.7031 -1.75 12.4609 Q-1.2188 13.2188 -0.4219 13.2188 Q0.3594 13.2188 0.8984 12.4609 Q1.4375 11.7031 1.4375 9.4062 Q1.4375 7.1094 0.8984 6.3594 Q0.3594 5.6094 -0.4375 5.6094 Q-1.2188 5.6094 -1.7031 6.2656 Q-2.2812 7.125 -2.2812 9.4062 Z"
    /></g
    ><g transform="translate(217.6667,379.3333)" style="font-size:13.3333px; fill:rgb(38,38,38); text-rendering:geometricPrecision; color-rendering:optimizeQuality; image-rendering:optimizeQuality; stroke:rgb(38,38,38); color-interpolation:linearRGB;"
    ><path style="stroke:none;" d="M-3.4531 11.5625 L-2.2656 11.4531 Q-2.125 12.3438 -1.6406 12.7812 Q-1.1562 13.2188 -0.4688 13.2188 Q0.3594 13.2188 0.9297 12.5938 Q1.5 11.9688 1.5 10.9531 Q1.5 9.9688 0.9531 9.4062 Q0.4062 8.8438 -0.4844 8.8438 Q-1.0469 8.8438 -1.4922 9.0938 Q-1.9375 9.3438 -2.1875 9.7344 L-3.25 9.5938 L-2.3594 4.8281 L2.2656 4.8281 L2.2656 5.9062 L-1.4375 5.9062 L-1.9375 8.4062 Q-1.1094 7.8281 -0.1875 7.8281 Q1.0312 7.8281 1.8672 8.6719 Q2.7031 9.5156 2.7031 10.8438 Q2.7031 12.1094 1.9688 13.0312 Q1.0781 14.1562 -0.4688 14.1562 Q-1.7344 14.1562 -2.5391 13.4453 Q-3.3438 12.7344 -3.4531 11.5625 Z"
    /></g
    ><g transform="translate(362.3333,379.3333)" style="font-size:13.3333px; fill:rgb(38,38,38); text-rendering:geometricPrecision; color-rendering:optimizeQuality; image-rendering:optimizeQuality; stroke:rgb(38,38,38); color-interpolation:linearRGB;"
    ><path style="stroke:none;" d="M-2.6562 14 L-3.7969 14 L-3.7969 6.7188 Q-4.2188 7.1094 -4.8828 7.5078 Q-5.5469 7.9062 -6.0781 8.0938 L-6.0781 6.9844 Q-5.125 6.5469 -4.4062 5.9062 Q-3.6875 5.2656 -3.3906 4.6562 L-2.6562 4.6562 L-2.6562 14 ZM0.4507 9.4062 Q0.4507 7.7656 0.7866 6.7578 Q1.1225 5.75 1.7944 5.2031 Q2.4663 4.6562 3.4819 4.6562 Q4.2319 4.6562 4.7944 4.9609 Q5.3569 5.2656 5.7241 5.8281 Q6.0913 6.3906 6.3022 7.2109 Q6.5132 8.0312 6.5132 9.4062 Q6.5132 11.0469 6.1772 12.0547 Q5.8413 13.0625 5.1694 13.6094 Q4.4975 14.1562 3.4819 14.1562 Q2.1382 14.1562 1.3569 13.1875 Q0.4507 12.0312 0.4507 9.4062 ZM1.6225 9.4062 Q1.6225 11.7031 2.1538 12.4609 Q2.685 13.2188 3.4819 13.2188 Q4.2632 13.2188 4.8022 12.4609 Q5.3413 11.7031 5.3413 9.4062 Q5.3413 7.1094 4.8022 6.3594 Q4.2632 5.6094 3.4663 5.6094 Q2.685 5.6094 2.2007 6.2656 Q1.6225 7.125 1.6225 9.4062 Z"
    /></g
    ><g transform="translate(507,379.3333)" style="font-size:13.3333px; fill:rgb(38,38,38); text-rendering:geometricPrecision; color-rendering:optimizeQuality; image-rendering:optimizeQuality; stroke:rgb(38,38,38); color-interpolation:linearRGB;"
    ><path style="stroke:none;" d="M-2.6562 14 L-3.7969 14 L-3.7969 6.7188 Q-4.2188 7.1094 -4.8828 7.5078 Q-5.5469 7.9062 -6.0781 8.0938 L-6.0781 6.9844 Q-5.125 6.5469 -4.4062 5.9062 Q-3.6875 5.2656 -3.3906 4.6562 L-2.6562 4.6562 L-2.6562 14 ZM0.4507 11.5625 L1.6382 11.4531 Q1.7788 12.3438 2.2632 12.7812 Q2.7475 13.2188 3.435 13.2188 Q4.2632 13.2188 4.8335 12.5938 Q5.4038 11.9688 5.4038 10.9531 Q5.4038 9.9688 4.8569 9.4062 Q4.31 8.8438 3.4194 8.8438 Q2.8569 8.8438 2.4116 9.0938 Q1.9663 9.3438 1.7163 9.7344 L0.6538 9.5938 L1.5444 4.8281 L6.1694 4.8281 L6.1694 5.9062 L2.4663 5.9062 L1.9663 8.4062 Q2.7944 7.8281 3.7163 7.8281 Q4.935 7.8281 5.771 8.6719 Q6.6069 9.5156 6.6069 10.8438 Q6.6069 12.1094 5.8725 13.0312 Q4.9819 14.1562 3.435 14.1562 Q2.1694 14.1562 1.3647 13.4453 Q0.56 12.7344 0.4507 11.5625 Z"
    /></g
    ><g transform="translate(290.0002,397.6667)" style="font-size:14.6667px; fill:rgb(38,38,38); text-rendering:geometricPrecision; color-rendering:optimizeQuality; image-rendering:optimizeQuality; stroke:rgb(38,38,38); color-interpolation:linearRGB;"
    ><path style="stroke:none;" d="M-15.4375 12.1562 L-14.1406 12.3125 Q-14.3438 13.6562 -15.2266 14.4141 Q-16.1094 15.1719 -17.375 15.1719 Q-18.9688 15.1719 -19.9375 14.1328 Q-20.9062 13.0938 -20.9062 11.1406 Q-20.9062 9.875 -20.4922 8.9297 Q-20.0781 7.9844 -19.2266 7.5156 Q-18.375 7.0469 -17.375 7.0469 Q-16.1094 7.0469 -15.2969 7.6875 Q-14.4844 8.3281 -14.2656 9.5 L-15.5469 9.7031 Q-15.7344 8.9219 -16.1953 8.5234 Q-16.6562 8.125 -17.3125 8.125 Q-18.3125 8.125 -18.9375 8.8438 Q-19.5625 9.5625 -19.5625 11.1094 Q-19.5625 12.6719 -18.9609 13.3828 Q-18.3594 14.0938 -17.3906 14.0938 Q-16.6094 14.0938 -16.0938 13.6172 Q-15.5781 13.1406 -15.4375 12.1562 ZM-16.875 5.2031 L-16.0625 3.9531 L-14.5781 3.9531 L-16.2188 6 L-17.625 6 L-19.2031 3.9531 L-17.7031 3.9531 L-16.875 5.2031 ZM-8.1094 14.0469 Q-8.8438 14.6562 -9.5156 14.9141 Q-10.1875 15.1719 -10.9688 15.1719 Q-12.25 15.1719 -12.9375 14.5469 Q-13.625 13.9219 -13.625 12.9531 Q-13.625 12.375 -13.3672 11.9062 Q-13.1094 11.4375 -12.6875 11.1484 Q-12.2656 10.8594 -11.7344 10.7188 Q-11.3594 10.6094 -10.5625 10.5156 Q-8.9688 10.3281 -8.2188 10.0625 Q-8.2031 9.7969 -8.2031 9.7188 Q-8.2031 8.9062 -8.5781 8.5781 Q-9.0938 8.1406 -10.0781 8.1406 Q-11.0156 8.1406 -11.4609 8.4609 Q-11.9062 8.7812 -12.1094 9.6094 L-13.4062 9.4375 Q-13.2344 8.6094 -12.8281 8.1016 Q-12.4219 7.5938 -11.6562 7.3203 Q-10.8906 7.0469 -9.8906 7.0469 Q-8.8906 7.0469 -8.2734 7.2812 Q-7.6562 7.5156 -7.3594 7.8672 Q-7.0625 8.2188 -6.9531 8.7656 Q-6.8906 9.1094 -6.8906 9.9844 L-6.8906 11.7344 Q-6.8906 13.5781 -6.8047 14.0625 Q-6.7188 14.5469 -6.4688 15 L-7.8438 15 Q-8.0469 14.5938 -8.1094 14.0469 ZM-8.2188 11.0938 Q-8.9375 11.3906 -10.375 11.5938 Q-11.1875 11.7188 -11.5234 11.8594 Q-11.8594 12 -12.0391 12.2812 Q-12.2188 12.5625 -12.2188 12.9062 Q-12.2188 13.4375 -11.8203 13.7891 Q-11.4219 14.1406 -10.6562 14.1406 Q-9.8906 14.1406 -9.2969 13.8047 Q-8.7031 13.4688 -8.4219 12.8906 Q-8.2188 12.4531 -8.2188 11.5781 L-8.2188 11.0938 ZM-5.552 12.6719 L-4.2551 12.4688 Q-4.1458 13.25 -3.6458 13.6719 Q-3.1458 14.0938 -2.2395 14.0938 Q-1.3333 14.0938 -0.8958 13.7266 Q-0.4583 13.3594 -0.4583 12.8594 Q-0.4583 12.4062 -0.8489 12.1562 Q-1.1145 11.9688 -2.1926 11.7031 Q-3.6458 11.3438 -4.2005 11.0703 Q-4.7551 10.7969 -5.0442 10.3281 Q-5.3333 9.8594 -5.3333 9.2812 Q-5.3333 8.7656 -5.0989 8.3203 Q-4.8645 7.875 -4.4583 7.5938 Q-4.1458 7.3594 -3.6145 7.2031 Q-3.0833 7.0469 -2.4739 7.0469 Q-1.5676 7.0469 -0.8723 7.3125 Q-0.177 7.5781 0.1511 8.0234 Q0.4792 8.4688 0.6042 9.2344 L-0.677 9.4062 Q-0.7708 8.7969 -1.1926 8.4609 Q-1.6145 8.125 -2.3801 8.125 Q-3.2864 8.125 -3.677 8.4297 Q-4.0676 8.7344 -4.0676 9.1406 Q-4.0676 9.3906 -3.9114 9.5938 Q-3.7395 9.8125 -3.3958 9.9531 Q-3.2083 10.0156 -2.2395 10.2812 Q-0.8333 10.6562 -0.2786 10.8906 Q0.2761 11.125 0.5886 11.5859 Q0.9011 12.0469 0.9011 12.7188 Q0.9011 13.375 0.5183 13.9531 Q0.1355 14.5312 -0.5911 14.8516 Q-1.3176 15.1719 -2.2395 15.1719 Q-3.7551 15.1719 -4.5442 14.5469 Q-5.3333 13.9219 -5.552 12.6719 ZM6.395 17.9844 L6.395 4.2656 L9.3012 4.2656 L9.3012 5.3594 L7.7231 5.3594 L7.7231 16.8906 L9.3012 16.8906 L9.3012 17.9844 L6.395 17.9844 ZM9.9201 12.6719 L11.2169 12.4688 Q11.3263 13.25 11.8263 13.6719 Q12.3263 14.0938 13.2326 14.0938 Q14.1388 14.0938 14.5763 13.7266 Q15.0138 13.3594 15.0138 12.8594 Q15.0138 12.4062 14.6232 12.1562 Q14.3576 11.9688 13.2794 11.7031 Q11.8263 11.3438 11.2716 11.0703 Q10.7169 10.7969 10.4279 10.3281 Q10.1388 9.8594 10.1388 9.2812 Q10.1388 8.7656 10.3732 8.3203 Q10.6076 7.875 11.0138 7.5938 Q11.3263 7.3594 11.8576 7.2031 Q12.3888 7.0469 12.9982 7.0469 Q13.9044 7.0469 14.5997 7.3125 Q15.2951 7.5781 15.6232 8.0234 Q15.9513 8.4688 16.0763 9.2344 L14.7951 9.4062 Q14.7013 8.7969 14.2794 8.4609 Q13.8576 8.125 13.0919 8.125 Q12.1857 8.125 11.7951 8.4297 Q11.4044 8.7344 11.4044 9.1406 Q11.4044 9.3906 11.5607 9.5938 Q11.7326 9.8125 12.0763 9.9531 Q12.2638 10.0156 13.2326 10.2812 Q14.6388 10.6562 15.1935 10.8906 Q15.7482 11.125 16.0607 11.5859 Q16.3732 12.0469 16.3732 12.7188 Q16.3732 13.375 15.9904 13.9531 Q15.6076 14.5312 14.881 14.8516 Q14.1544 15.1719 13.2326 15.1719 Q11.7169 15.1719 10.9279 14.5469 Q10.1388 13.9219 9.9201 12.6719 ZM19.9669 17.9844 L17.0607 17.9844 L17.0607 16.8906 L18.6544 16.8906 L18.6544 5.3594 L17.0607 5.3594 L17.0607 4.2656 L19.9669 4.2656 L19.9669 17.9844 Z"
    /></g
    ><g style="fill:rgb(38,38,38); text-rendering:geometricPrecision; image-rendering:optimizeQuality; color-rendering:optimizeQuality; stroke-linejoin:round; stroke:rgb(38,38,38); color-interpolation:linearRGB; stroke-width:0.6667;"
    ><line y2="31" style="fill:none;" x1="73" x2="73" y1="374"
      /><line y2="31" style="fill:none;" x1="507" x2="507" y1="374"
      /><line y2="374" style="fill:none;" x1="73" x2="77.34" y1="374"
      /><line y2="316.8333" style="fill:none;" x1="73" x2="77.34" y1="316.8333"
      /><line y2="259.6667" style="fill:none;" x1="73" x2="77.34" y1="259.6667"
      /><line y2="202.5" style="fill:none;" x1="73" x2="77.34" y1="202.5"
      /><line y2="145.3333" style="fill:none;" x1="73" x2="77.34" y1="145.3333"
      /><line y2="88.1667" style="fill:none;" x1="73" x2="77.34" y1="88.1667"
      /><line y2="31" style="fill:none;" x1="73" x2="77.34" y1="31"
      /><line y2="374" style="fill:none;" x1="507" x2="502.66" y1="374"
      /><line y2="316.8333" style="fill:none;" x1="507" x2="502.66" y1="316.8333"
      /><line y2="259.6667" style="fill:none;" x1="507" x2="502.66" y1="259.6667"
      /><line y2="202.5" style="fill:none;" x1="507" x2="502.66" y1="202.5"
      /><line y2="145.3333" style="fill:none;" x1="507" x2="502.66" y1="145.3333"
      /><line y2="88.1667" style="fill:none;" x1="507" x2="502.66" y1="88.1667"
      /><line y2="31" style="fill:none;" x1="507" x2="502.66" y1="31"
    /></g
    ><g transform="translate(67.6667,374)" style="font-size:13.3333px; fill:rgb(38,38,38); text-rendering:geometricPrecision; color-rendering:optimizeQuality; image-rendering:optimizeQuality; stroke:rgb(38,38,38); color-interpolation:linearRGB;"
    ><path style="stroke:none;" d="M-22.5938 2.7031 L-22.5938 1.5625 L-19.0781 1.5625 L-19.0781 2.7031 L-22.5938 2.7031 ZM-12.02 4.4062 L-12.02 5.5 L-18.1762 5.5 Q-18.1918 5.0938 -18.0356 4.7031 Q-17.8012 4.0781 -17.2856 3.4688 Q-16.77 2.8594 -15.7856 2.0625 Q-14.27 0.8125 -13.7387 0.0859 Q-13.2075 -0.6406 -13.2075 -1.2812 Q-13.2075 -1.9688 -13.6918 -2.4297 Q-14.1762 -2.8906 -14.9575 -2.8906 Q-15.7856 -2.8906 -16.2778 -2.3984 Q-16.77 -1.9062 -16.7856 -1.0312 L-17.9575 -1.1562 Q-17.8325 -2.4688 -17.0512 -3.1562 Q-16.27 -3.8438 -14.9418 -3.8438 Q-13.5981 -3.8438 -12.8168 -3.1016 Q-12.0356 -2.3594 -12.0356 -1.2656 Q-12.0356 -0.7031 -12.2621 -0.1641 Q-12.4887 0.375 -13.02 0.9766 Q-13.5512 1.5781 -14.7856 2.6094 Q-15.8168 3.4688 -16.1059 3.7812 Q-16.395 4.0938 -16.5825 4.4062 L-12.02 4.4062 ZM-9.9756 5.5 L-9.9756 4.2031 L-8.6787 4.2031 L-8.6787 5.5 L-9.9756 5.5 ZM-6.9175 3.0625 L-5.73 2.9531 Q-5.5894 3.8438 -5.105 4.2812 Q-4.6207 4.7188 -3.9332 4.7188 Q-3.105 4.7188 -2.5347 4.0938 Q-1.9644 3.4688 -1.9644 2.4531 Q-1.9644 1.4688 -2.5113 0.9062 Q-3.0582 0.3438 -3.9488 0.3438 Q-4.5113 0.3438 -4.9566 0.5938 Q-5.4019 0.8438 -5.6519 1.2344 L-6.7144 1.0938 L-5.8238 -3.6719 L-1.1988 -3.6719 L-1.1988 -2.5938 L-4.9019 -2.5938 L-5.4019 -0.0938 Q-4.5738 -0.6719 -3.6519 -0.6719 Q-2.4332 -0.6719 -1.5972 0.1719 Q-0.7613 1.0156 -0.7613 2.3438 Q-0.7613 3.6094 -1.4957 4.5312 Q-2.3863 5.6562 -3.9332 5.6562 Q-5.1988 5.6562 -6.0035 4.9453 Q-6.8082 4.2344 -6.9175 3.0625 Z"
    /></g
    ><g transform="translate(67.6667,316.8333)" style="font-size:13.3333px; fill:rgb(38,38,38); text-rendering:geometricPrecision; color-rendering:optimizeQuality; image-rendering:optimizeQuality; stroke:rgb(38,38,38); color-interpolation:linearRGB;"
    ><path style="stroke:none;" d="M-11.5938 2.7031 L-11.5938 1.5625 L-8.0781 1.5625 L-8.0781 2.7031 L-11.5938 2.7031 ZM-1.02 4.4062 L-1.02 5.5 L-7.1762 5.5 Q-7.1918 5.0938 -7.0356 4.7031 Q-6.8012 4.0781 -6.2856 3.4688 Q-5.77 2.8594 -4.7856 2.0625 Q-3.27 0.8125 -2.7387 0.0859 Q-2.2075 -0.6406 -2.2075 -1.2812 Q-2.2075 -1.9688 -2.6918 -2.4297 Q-3.1762 -2.8906 -3.9575 -2.8906 Q-4.7856 -2.8906 -5.2778 -2.3984 Q-5.77 -1.9062 -5.7856 -1.0312 L-6.9575 -1.1562 Q-6.8325 -2.4688 -6.0512 -3.1562 Q-5.27 -3.8438 -3.9418 -3.8438 Q-2.5981 -3.8438 -1.8168 -3.1016 Q-1.0356 -2.3594 -1.0356 -1.2656 Q-1.0356 -0.7031 -1.2621 -0.1641 Q-1.4887 0.375 -2.02 0.9766 Q-2.5512 1.5781 -3.7856 2.6094 Q-4.8168 3.4688 -5.1059 3.7812 Q-5.395 4.0938 -5.5825 4.4062 L-1.02 4.4062 Z"
    /></g
    ><g transform="translate(67.6667,259.6667)" style="font-size:13.3333px; fill:rgb(38,38,38); text-rendering:geometricPrecision; color-rendering:optimizeQuality; image-rendering:optimizeQuality; stroke:rgb(38,38,38); color-interpolation:linearRGB;"
    ><path style="stroke:none;" d="M-22.5938 2.7031 L-22.5938 1.5625 L-19.0781 1.5625 L-19.0781 2.7031 L-22.5938 2.7031 ZM-13.7231 5.5 L-14.8637 5.5 L-14.8637 -1.7812 Q-15.2856 -1.3906 -15.9496 -0.9922 Q-16.6137 -0.5938 -17.145 -0.4062 L-17.145 -1.5156 Q-16.1918 -1.9531 -15.4731 -2.5938 Q-14.7543 -3.2344 -14.4575 -3.8438 L-13.7231 -3.8438 L-13.7231 5.5 ZM-9.9756 5.5 L-9.9756 4.2031 L-8.6787 4.2031 L-8.6787 5.5 L-9.9756 5.5 ZM-6.9175 3.0625 L-5.73 2.9531 Q-5.5894 3.8438 -5.105 4.2812 Q-4.6207 4.7188 -3.9332 4.7188 Q-3.105 4.7188 -2.5347 4.0938 Q-1.9644 3.4688 -1.9644 2.4531 Q-1.9644 1.4688 -2.5113 0.9062 Q-3.0582 0.3438 -3.9488 0.3438 Q-4.5113 0.3438 -4.9566 0.5938 Q-5.4019 0.8438 -5.6519 1.2344 L-6.7144 1.0938 L-5.8238 -3.6719 L-1.1988 -3.6719 L-1.1988 -2.5938 L-4.9019 -2.5938 L-5.4019 -0.0938 Q-4.5738 -0.6719 -3.6519 -0.6719 Q-2.4332 -0.6719 -1.5972 0.1719 Q-0.7613 1.0156 -0.7613 2.3438 Q-0.7613 3.6094 -1.4957 4.5312 Q-2.3863 5.6562 -3.9332 5.6562 Q-5.1988 5.6562 -6.0035 4.9453 Q-6.8082 4.2344 -6.9175 3.0625 Z"
    /></g
    ><g transform="translate(67.6667,202.5)" style="font-size:13.3333px; fill:rgb(38,38,38); text-rendering:geometricPrecision; color-rendering:optimizeQuality; image-rendering:optimizeQuality; stroke:rgb(38,38,38); color-interpolation:linearRGB;"
    ><path style="stroke:none;" d="M-11.5938 2.7031 L-11.5938 1.5625 L-8.0781 1.5625 L-8.0781 2.7031 L-11.5938 2.7031 ZM-2.7231 5.5 L-3.8637 5.5 L-3.8637 -1.7812 Q-4.2856 -1.3906 -4.9496 -0.9922 Q-5.6137 -0.5938 -6.145 -0.4062 L-6.145 -1.5156 Q-5.1918 -1.9531 -4.4731 -2.5938 Q-3.7543 -3.2344 -3.4575 -3.8438 L-2.7231 -3.8438 L-2.7231 5.5 Z"
    /></g
    ><g transform="translate(67.6667,145.3333)" style="font-size:13.3333px; fill:rgb(38,38,38); text-rendering:geometricPrecision; color-rendering:optimizeQuality; image-rendering:optimizeQuality; stroke:rgb(38,38,38); color-interpolation:linearRGB;"
    ><path style="stroke:none;" d="M-22.5938 2.7031 L-22.5938 1.5625 L-19.0781 1.5625 L-19.0781 2.7031 L-22.5938 2.7031 ZM-18.02 0.9062 Q-18.02 -0.7344 -17.684 -1.7422 Q-17.3481 -2.75 -16.6762 -3.2969 Q-16.0043 -3.8438 -14.9887 -3.8438 Q-14.2387 -3.8438 -13.6762 -3.5391 Q-13.1137 -3.2344 -12.7465 -2.6719 Q-12.3793 -2.1094 -12.1684 -1.2891 Q-11.9575 -0.4688 -11.9575 0.9062 Q-11.9575 2.5469 -12.2934 3.5547 Q-12.6293 4.5625 -13.3012 5.1094 Q-13.9731 5.6562 -14.9887 5.6562 Q-16.3325 5.6562 -17.1137 4.6875 Q-18.02 3.5312 -18.02 0.9062 ZM-16.8481 0.9062 Q-16.8481 3.2031 -16.3168 3.9609 Q-15.7856 4.7188 -14.9887 4.7188 Q-14.2075 4.7188 -13.6684 3.9609 Q-13.1293 3.2031 -13.1293 0.9062 Q-13.1293 -1.3906 -13.6684 -2.1406 Q-14.2075 -2.8906 -15.0043 -2.8906 Q-15.7856 -2.8906 -16.27 -2.2344 Q-16.8481 -1.375 -16.8481 0.9062 ZM-9.9756 5.5 L-9.9756 4.2031 L-8.6787 4.2031 L-8.6787 5.5 L-9.9756 5.5 ZM-6.9175 3.0625 L-5.73 2.9531 Q-5.5894 3.8438 -5.105 4.2812 Q-4.6207 4.7188 -3.9332 4.7188 Q-3.105 4.7188 -2.5347 4.0938 Q-1.9644 3.4688 -1.9644 2.4531 Q-1.9644 1.4688 -2.5113 0.9062 Q-3.0582 0.3438 -3.9488 0.3438 Q-4.5113 0.3438 -4.9566 0.5938 Q-5.4019 0.8438 -5.6519 1.2344 L-6.7144 1.0938 L-5.8238 -3.6719 L-1.1988 -3.6719 L-1.1988 -2.5938 L-4.9019 -2.5938 L-5.4019 -0.0938 Q-4.5738 -0.6719 -3.6519 -0.6719 Q-2.4332 -0.6719 -1.5972 0.1719 Q-0.7613 1.0156 -0.7613 2.3438 Q-0.7613 3.6094 -1.4957 4.5312 Q-2.3863 5.6562 -3.9332 5.6562 Q-5.1988 5.6562 -6.0035 4.9453 Q-6.8082 4.2344 -6.9175 3.0625 Z"
    /></g
    ><g transform="translate(67.6667,88.1667)" style="font-size:13.3333px; fill:rgb(38,38,38); text-rendering:geometricPrecision; color-rendering:optimizeQuality; image-rendering:optimizeQuality; stroke:rgb(38,38,38); color-interpolation:linearRGB;"
    ><path style="stroke:none;" d="M-7.4531 0.9062 Q-7.4531 -0.7344 -7.1172 -1.7422 Q-6.7812 -2.75 -6.1094 -3.2969 Q-5.4375 -3.8438 -4.4219 -3.8438 Q-3.6719 -3.8438 -3.1094 -3.5391 Q-2.5469 -3.2344 -2.1797 -2.6719 Q-1.8125 -2.1094 -1.6016 -1.2891 Q-1.3906 -0.4688 -1.3906 0.9062 Q-1.3906 2.5469 -1.7266 3.5547 Q-2.0625 4.5625 -2.7344 5.1094 Q-3.4062 5.6562 -4.4219 5.6562 Q-5.7656 5.6562 -6.5469 4.6875 Q-7.4531 3.5312 -7.4531 0.9062 ZM-6.2812 0.9062 Q-6.2812 3.2031 -5.75 3.9609 Q-5.2188 4.7188 -4.4219 4.7188 Q-3.6406 4.7188 -3.1016 3.9609 Q-2.5625 3.2031 -2.5625 0.9062 Q-2.5625 -1.3906 -3.1016 -2.1406 Q-3.6406 -2.8906 -4.4375 -2.8906 Q-5.2188 -2.8906 -5.7031 -2.2344 Q-6.2812 -1.375 -6.2812 0.9062 Z"
    /></g
    ><g transform="translate(67.6667,31)" style="font-size:13.3333px; fill:rgb(38,38,38); text-rendering:geometricPrecision; color-rendering:optimizeQuality; image-rendering:optimizeQuality; stroke:rgb(38,38,38); color-interpolation:linearRGB;"
    ><path style="stroke:none;" d="M-18.4531 0.9062 Q-18.4531 -0.7344 -18.1172 -1.7422 Q-17.7812 -2.75 -17.1094 -3.2969 Q-16.4375 -3.8438 -15.4219 -3.8438 Q-14.6719 -3.8438 -14.1094 -3.5391 Q-13.5469 -3.2344 -13.1797 -2.6719 Q-12.8125 -2.1094 -12.6016 -1.2891 Q-12.3906 -0.4688 -12.3906 0.9062 Q-12.3906 2.5469 -12.7266 3.5547 Q-13.0625 4.5625 -13.7344 5.1094 Q-14.4062 5.6562 -15.4219 5.6562 Q-16.7656 5.6562 -17.5469 4.6875 Q-18.4531 3.5312 -18.4531 0.9062 ZM-17.2812 0.9062 Q-17.2812 3.2031 -16.75 3.9609 Q-16.2188 4.7188 -15.4219 4.7188 Q-14.6406 4.7188 -14.1016 3.9609 Q-13.5625 3.2031 -13.5625 0.9062 Q-13.5625 -1.3906 -14.1016 -2.1406 Q-14.6406 -2.8906 -15.4375 -2.8906 Q-16.2188 -2.8906 -16.7031 -2.2344 Q-17.2812 -1.375 -17.2812 0.9062 ZM-10.4087 5.5 L-10.4087 4.2031 L-9.1118 4.2031 L-9.1118 5.5 L-10.4087 5.5 ZM-7.3507 3.0625 L-6.1632 2.9531 Q-6.0226 3.8438 -5.5382 4.2812 Q-5.0538 4.7188 -4.3663 4.7188 Q-3.5382 4.7188 -2.9679 4.0938 Q-2.3976 3.4688 -2.3976 2.4531 Q-2.3976 1.4688 -2.9445 0.9062 Q-3.4913 0.3438 -4.382 0.3438 Q-4.9445 0.3438 -5.3898 0.5938 Q-5.8351 0.8438 -6.0851 1.2344 L-7.1476 1.0938 L-6.257 -3.6719 L-1.632 -3.6719 L-1.632 -2.5938 L-5.3351 -2.5938 L-5.8351 -0.0938 Q-5.007 -0.6719 -4.0851 -0.6719 Q-2.8663 -0.6719 -2.0304 0.1719 Q-1.1945 1.0156 -1.1945 2.3438 Q-1.1945 3.6094 -1.9288 4.5312 Q-2.8195 5.6562 -4.3663 5.6562 Q-5.632 5.6562 -6.4366 4.9453 Q-7.2413 4.2344 -7.3507 3.0625 Z"
    /></g
    ><g transform="translate(37,241) rotate(-90)" style="font-size:14.6667px; fill:rgb(38,38,38); text-rendering:geometricPrecision; image-rendering:optimizeQuality; color-rendering:optimizeQuality; font-family:'mwb_cmmi10'; stroke:rgb(38,38,38); color-interpolation:linearRGB;"
    ><path style="stroke:none;" d="M2.4219 0.1719 Q1.7344 0.1719 1.3281 -0.3281 Q0.9219 -0.8281 0.7578 -1.5312 Q0.5938 -2.2344 0.5938 -2.9219 L0.5938 -2.9375 Q0.5938 -3.6875 0.7422 -4.4922 Q0.8906 -5.2969 1.1562 -6.1016 Q1.4219 -6.9062 1.75 -7.5312 Q1.9688 -7.9688 2.3125 -8.5078 Q2.6562 -9.0469 3.0859 -9.5234 Q3.5156 -10 4.0078 -10.2891 Q4.5 -10.5781 5.0156 -10.5781 L5.0312 -10.5781 Q5.5625 -10.5781 5.9297 -10.2734 Q6.2969 -9.9688 6.4922 -9.5 Q6.6875 -9.0312 6.7734 -8.5 Q6.8594 -7.9688 6.8594 -7.4844 Q6.8594 -6.3438 6.5469 -5.1641 Q6.2344 -3.9844 5.7031 -2.875 Q5.5 -2.4688 5.1328 -1.8984 Q4.7656 -1.3281 4.3594 -0.8828 Q3.9531 -0.4375 3.4453 -0.1328 Q2.9375 0.1719 2.4375 0.1719 L2.4219 0.1719 ZM2.4531 -0.2344 Q2.9375 -0.2344 3.3984 -0.7656 Q3.8594 -1.2969 4.2031 -2.0547 Q4.5469 -2.8125 4.8047 -3.6016 Q5.0625 -4.3906 5.1875 -4.9531 L2.125 -4.9531 Q1.8906 -4 1.7656 -3.3203 Q1.6406 -2.6406 1.6406 -1.9844 Q1.6406 -0.2344 2.4531 -0.2344 ZM2.25 -5.4844 L5.3281 -5.4844 Q5.4844 -6.1406 5.5781 -6.5859 Q5.6719 -7.0312 5.7422 -7.5156 Q5.8125 -8 5.8125 -8.4375 Q5.8125 -10.1875 5.0156 -10.1875 Q4.0625 -10.1875 3.3672 -8.6562 Q2.6719 -7.125 2.25 -5.4844 Z"
    /></g
    ><g transform="translate(37,234) rotate(-90)" style="font-size:14.6667px; fill:rgb(38,38,38); text-rendering:geometricPrecision; color-rendering:optimizeQuality; image-rendering:optimizeQuality; stroke:rgb(38,38,38); color-interpolation:linearRGB;"
    ><path style="stroke:none;" d="M1 -6.9375 L0.6562 -8.9375 L0.6562 -10.7344 L2.1562 -10.7344 L2.1562 -8.9375 L1.8125 -6.9375 L1 -6.9375 ZM7.8857 2.9844 L7.8857 -10.7344 L10.792 -10.7344 L10.792 -9.6406 L9.2139 -9.6406 L9.2139 1.8906 L10.792 1.8906 L10.792 2.9844 L7.8857 2.9844 ZM11.9108 0 L11.9108 -7.7812 L13.0983 -7.7812 L13.0983 -6.5938 Q13.5515 -7.4219 13.9421 -7.6875 Q14.3327 -7.9531 14.7858 -7.9531 Q15.4577 -7.9531 16.1452 -7.5312 L15.6921 -6.3125 Q15.2077 -6.5938 14.7233 -6.5938 Q14.2858 -6.5938 13.9421 -6.3359 Q13.5983 -6.0781 13.4577 -5.6094 Q13.239 -4.9062 13.239 -4.0781 L13.239 0 L11.9108 0 ZM21.8852 -0.9531 Q21.1509 -0.3438 20.479 -0.0859 Q19.8071 0.1719 19.0259 0.1719 Q17.7446 0.1719 17.0571 -0.4531 Q16.3696 -1.0781 16.3696 -2.0469 Q16.3696 -2.625 16.6274 -3.0938 Q16.8852 -3.5625 17.3071 -3.8516 Q17.729 -4.1406 18.2602 -4.2812 Q18.6352 -4.3906 19.4321 -4.4844 Q21.0259 -4.6719 21.7759 -4.9375 Q21.7915 -5.2031 21.7915 -5.2812 Q21.7915 -6.0938 21.4165 -6.4219 Q20.9009 -6.8594 19.9165 -6.8594 Q18.979 -6.8594 18.5337 -6.5391 Q18.0884 -6.2188 17.8852 -5.3906 L16.5884 -5.5625 Q16.7602 -6.3906 17.1665 -6.8984 Q17.5727 -7.4062 18.3384 -7.6797 Q19.104 -7.9531 20.104 -7.9531 Q21.104 -7.9531 21.7212 -7.7188 Q22.3384 -7.4844 22.6352 -7.1328 Q22.9321 -6.7812 23.0415 -6.2344 Q23.104 -5.8906 23.104 -5.0156 L23.104 -3.2656 Q23.104 -1.4219 23.1899 -0.9375 Q23.2759 -0.4531 23.5259 0 L22.1509 0 Q21.9477 -0.4062 21.8852 -0.9531 ZM21.7759 -3.9062 Q21.0571 -3.6094 19.6196 -3.4062 Q18.8071 -3.2812 18.4712 -3.1406 Q18.1352 -3 17.9556 -2.7188 Q17.7759 -2.4375 17.7759 -2.0938 Q17.7759 -1.5625 18.1743 -1.2109 Q18.5727 -0.8594 19.3384 -0.8594 Q20.104 -0.8594 20.6977 -1.1953 Q21.2915 -1.5312 21.5727 -2.1094 Q21.7759 -2.5469 21.7759 -3.4219 L21.7759 -3.9062 ZM30.0051 0 L30.0051 -0.9844 Q29.2707 0.1719 27.8332 0.1719 Q26.9113 0.1719 26.1301 -0.3359 Q25.3488 -0.8438 24.9192 -1.7656 Q24.4895 -2.6875 24.4895 -3.875 Q24.4895 -5.0469 24.8801 -5.9922 Q25.2707 -6.9375 26.0442 -7.4453 Q26.8176 -7.9531 27.7707 -7.9531 Q28.4738 -7.9531 29.0285 -7.6562 Q29.5832 -7.3594 29.927 -6.8906 L29.927 -10.7344 L31.2395 -10.7344 L31.2395 0 L30.0051 0 ZM25.8488 -3.875 Q25.8488 -2.3906 26.4738 -1.6484 Q27.0988 -0.9062 27.9582 -0.9062 Q28.8176 -0.9062 29.427 -1.6172 Q30.0363 -2.3281 30.0363 -3.7656 Q30.0363 -5.375 29.4192 -6.1172 Q28.802 -6.8594 27.8957 -6.8594 Q27.0207 -6.8594 26.4348 -6.1406 Q25.8488 -5.4219 25.8488 -3.875 Z"
    /></g
    ><g transform="translate(37,197) rotate(-90)" style="font-size:14.6667px; fill:rgb(38,38,38); text-rendering:geometricPrecision; image-rendering:optimizeQuality; color-rendering:optimizeQuality; font-family:'mwb_cmsy10'; stroke:rgb(38,38,38); color-interpolation:linearRGB;"
    ><path style="stroke:none;" d="M1.2656 -3.75 Q1.2656 -3.9688 1.375 -4.1562 Q1.4844 -4.3438 1.6797 -4.4609 Q1.875 -4.5781 2.0938 -4.5781 Q2.2969 -4.5781 2.4922 -4.4609 Q2.6875 -4.3438 2.7969 -4.1562 Q2.9062 -3.9688 2.9062 -3.75 Q2.9062 -3.4062 2.6719 -3.1641 Q2.4375 -2.9219 2.0938 -2.9219 Q1.75 -2.9219 1.5078 -3.1641 Q1.2656 -3.4062 1.2656 -3.75 Z"
    /></g
    ><g transform="translate(37,192) rotate(-90)" style="font-size:14.6667px; fill:rgb(38,38,38); text-rendering:geometricPrecision; color-rendering:optimizeQuality; image-rendering:optimizeQuality; stroke:rgb(38,38,38); color-interpolation:linearRGB;"
    ><path style="stroke:none;" d="M4.5407 -2.3281 L5.8376 -2.5312 Q5.947 -1.75 6.447 -1.3281 Q6.947 -0.9062 7.8532 -0.9062 Q8.7595 -0.9062 9.197 -1.2734 Q9.6345 -1.6406 9.6345 -2.1406 Q9.6345 -2.5938 9.2439 -2.8438 Q8.9782 -3.0312 7.9001 -3.2969 Q6.447 -3.6562 5.8923 -3.9297 Q5.3376 -4.2031 5.0485 -4.6719 Q4.7595 -5.1406 4.7595 -5.7188 Q4.7595 -6.2344 4.9939 -6.6797 Q5.2282 -7.125 5.6345 -7.4062 Q5.947 -7.6406 6.4782 -7.7969 Q7.0095 -7.9531 7.6189 -7.9531 Q8.5251 -7.9531 9.2204 -7.6875 Q9.9157 -7.4219 10.2439 -6.9766 Q10.572 -6.5312 10.697 -5.7656 L9.4157 -5.5938 Q9.322 -6.2031 8.9001 -6.5391 Q8.4782 -6.875 7.7126 -6.875 Q6.8064 -6.875 6.4157 -6.5703 Q6.0251 -6.2656 6.0251 -5.8594 Q6.0251 -5.6094 6.1814 -5.4062 Q6.3532 -5.1875 6.697 -5.0469 Q6.8845 -4.9844 7.8532 -4.7188 Q9.2595 -4.3438 9.8142 -4.1094 Q10.3689 -3.875 10.6814 -3.4141 Q10.9939 -2.9531 10.9939 -2.2812 Q10.9939 -1.625 10.611 -1.0469 Q10.2282 -0.4688 9.5017 -0.1484 Q8.7751 0.1719 7.8532 0.1719 Q6.3376 0.1719 5.5485 -0.4531 Q4.7595 -1.0781 4.5407 -2.3281 Z"
    /></g
    ><g transform="translate(30,180) rotate(-90)" style="font-size:11.7333px; fill:rgb(38,38,38); text-rendering:geometricPrecision; color-rendering:optimizeQuality; image-rendering:optimizeQuality; stroke:rgb(38,38,38); color-interpolation:linearRGB;"
    ><path style="stroke:none;" d="M0.375 -2.5781 L0.375 -3.6406 L3.625 -3.6406 L3.625 -2.5781 L0.375 -2.5781 ZM8.3712 0 L7.3243 0 L7.3243 -6.7188 Q6.9337 -6.3594 6.3165 -5.9922 Q5.6993 -5.625 5.2149 -5.4531 L5.2149 -6.4688 Q6.0899 -6.8906 6.754 -7.4766 Q7.4181 -8.0625 7.6993 -8.625 L8.3712 -8.625 L8.3712 0 Z"
    /></g
    ><g transform="translate(37,169) rotate(-90)" style="font-size:14.6667px; fill:rgb(38,38,38); text-rendering:geometricPrecision; color-rendering:optimizeQuality; image-rendering:optimizeQuality; stroke:rgb(38,38,38); color-interpolation:linearRGB;"
    ><path style="stroke:none;" d="M3.1875 2.9844 L0.2812 2.9844 L0.2812 1.8906 L1.875 1.8906 L1.875 -9.6406 L0.2812 -9.6406 L0.2812 -10.7344 L3.1875 -10.7344 L3.1875 2.9844 Z"
    /></g
    ><g transform="translate(290.0003,28.25)" style="font-size:14.6667px; text-rendering:geometricPrecision; color-rendering:optimizeQuality; image-rendering:optimizeQuality; color-interpolation:linearRGB; font-weight:bold;"
    ><path style="stroke:none;" d="M-47.1719 -4 L-51 -14.7344 L-48.6562 -14.7344 L-45.9375 -6.7969 L-43.3125 -14.7344 L-41.0156 -14.7344 L-44.8594 -4 L-47.1719 -4 ZM-38.615 -9.4062 L-40.4744 -9.75 Q-40.1619 -10.875 -39.3963 -11.4141 Q-38.6306 -11.9531 -37.115 -11.9531 Q-35.7244 -11.9531 -35.0525 -11.625 Q-34.3806 -11.2969 -34.1072 -10.7969 Q-33.8338 -10.2969 -33.8338 -8.9531 L-33.8494 -6.5625 Q-33.8494 -5.5312 -33.7556 -5.0469 Q-33.6619 -4.5625 -33.3806 -4 L-35.4275 -4 Q-35.5056 -4.2031 -35.615 -4.6094 Q-35.6775 -4.7969 -35.6931 -4.8438 Q-36.2244 -4.3438 -36.826 -4.0859 Q-37.4275 -3.8281 -38.0994 -3.8281 Q-39.3025 -3.8281 -39.9978 -4.4766 Q-40.6931 -5.125 -40.6931 -6.125 Q-40.6931 -6.7812 -40.3728 -7.2969 Q-40.0525 -7.8125 -39.49 -8.0859 Q-38.9275 -8.3594 -37.8494 -8.5781 Q-36.4119 -8.8438 -35.8494 -9.0781 L-35.8494 -9.2812 Q-35.8494 -9.875 -36.1463 -10.125 Q-36.4431 -10.375 -37.2556 -10.375 Q-37.8025 -10.375 -38.1072 -10.1641 Q-38.4119 -9.9531 -38.615 -9.4062 ZM-35.8494 -7.7344 Q-36.2556 -7.6094 -37.1072 -7.4219 Q-37.9588 -7.2344 -38.2244 -7.0625 Q-38.6306 -6.7812 -38.6306 -6.3438 Q-38.6306 -5.9062 -38.3103 -5.5938 Q-37.99 -5.2812 -37.49 -5.2812 Q-36.9275 -5.2812 -36.4275 -5.6406 Q-36.0525 -5.9219 -35.9431 -6.3281 Q-35.8494 -6.5781 -35.8494 -7.3281 L-35.8494 -7.7344 ZM-31.9952 -4 L-31.9952 -14.7344 L-29.9327 -14.7344 L-29.9327 -4 L-31.9952 -4 ZM-27.9232 -12.8281 L-27.9232 -14.7344 L-25.8607 -14.7344 L-25.8607 -12.8281 L-27.9232 -12.8281 ZM-27.9232 -4 L-27.9232 -11.7812 L-25.8607 -11.7812 L-25.8607 -4 L-27.9232 -4 ZM-16.7262 -4 L-18.6325 -4 L-18.6325 -5.1406 Q-19.1012 -4.4688 -19.7496 -4.1484 Q-20.3981 -3.8281 -21.0543 -3.8281 Q-22.3981 -3.8281 -23.359 -4.9062 Q-24.32 -5.9844 -24.32 -7.9219 Q-24.32 -9.8906 -23.3903 -10.9219 Q-22.4606 -11.9531 -21.0387 -11.9531 Q-19.7262 -11.9531 -18.7731 -10.875 L-18.7731 -14.7344 L-16.7262 -14.7344 L-16.7262 -4 ZM-22.2106 -8.0625 Q-22.2106 -6.8125 -21.8668 -6.25 Q-21.3668 -5.4531 -20.4762 -5.4531 Q-19.7731 -5.4531 -19.2731 -6.0547 Q-18.7731 -6.6562 -18.7731 -7.8594 Q-18.7731 -9.2031 -19.2575 -9.7891 Q-19.7418 -10.375 -20.4918 -10.375 Q-21.2262 -10.375 -21.7184 -9.7969 Q-22.2106 -9.2188 -22.2106 -8.0625 ZM-13.3673 -9.4062 L-15.2267 -9.75 Q-14.9142 -10.875 -14.1486 -11.4141 Q-13.383 -11.9531 -11.8673 -11.9531 Q-10.4767 -11.9531 -9.8048 -11.625 Q-9.133 -11.2969 -8.8595 -10.7969 Q-8.5861 -10.2969 -8.5861 -8.9531 L-8.6017 -6.5625 Q-8.6017 -5.5312 -8.508 -5.0469 Q-8.4142 -4.5625 -8.133 -4 L-10.1798 -4 Q-10.258 -4.2031 -10.3673 -4.6094 Q-10.4298 -4.7969 -10.4455 -4.8438 Q-10.9767 -4.3438 -11.5783 -4.0859 Q-12.1798 -3.8281 -12.8517 -3.8281 Q-14.0548 -3.8281 -14.7502 -4.4766 Q-15.4455 -5.125 -15.4455 -6.125 Q-15.4455 -6.7812 -15.1252 -7.2969 Q-14.8048 -7.8125 -14.2423 -8.0859 Q-13.6798 -8.3594 -12.6017 -8.5781 Q-11.1642 -8.8438 -10.6017 -9.0781 L-10.6017 -9.2812 Q-10.6017 -9.875 -10.8986 -10.125 Q-11.1955 -10.375 -12.008 -10.375 Q-12.5548 -10.375 -12.8595 -10.1641 Q-13.1642 -9.9531 -13.3673 -9.4062 ZM-10.6017 -7.7344 Q-11.008 -7.6094 -11.8595 -7.4219 Q-12.7111 -7.2344 -12.9767 -7.0625 Q-13.383 -6.7812 -13.383 -6.3438 Q-13.383 -5.9062 -13.0627 -5.5938 Q-12.7423 -5.2812 -12.2423 -5.2812 Q-11.6798 -5.2812 -11.1798 -5.6406 Q-10.8048 -5.9219 -10.6955 -6.3281 Q-10.6017 -6.5781 -10.6017 -7.3281 L-10.6017 -7.7344 ZM0.0338 -9.4844 L-1.9975 -9.1094 Q-2.0912 -9.7188 -2.4584 -10.0234 Q-2.8256 -10.3281 -3.4037 -10.3281 Q-4.1694 -10.3281 -4.6303 -9.8047 Q-5.0912 -9.2812 -5.0912 -8.0312 Q-5.0912 -6.6406 -4.6225 -6.0703 Q-4.1537 -5.5 -3.3725 -5.5 Q-2.7787 -5.5 -2.4115 -5.8359 Q-2.0444 -6.1719 -1.8881 -6.9844 L0.1431 -6.6406 Q-0.185 -5.25 -1.0756 -4.5391 Q-1.9662 -3.8281 -3.4662 -3.8281 Q-5.1694 -3.8281 -6.185 -4.9062 Q-7.2006 -5.9844 -7.2006 -7.875 Q-7.2006 -9.8125 -6.185 -10.8828 Q-5.1694 -11.9531 -3.435 -11.9531 Q-2.0131 -11.9531 -1.1694 -11.3438 Q-0.3256 -10.7344 0.0338 -9.4844 ZM5.9036 -6.4688 L7.9505 -6.125 Q7.5599 -5 6.7083 -4.4141 Q5.8568 -3.8281 4.5755 -3.8281 Q2.5443 -3.8281 1.5755 -5.1562 Q0.7943 -6.2188 0.7943 -7.8281 Q0.7943 -9.7656 1.8099 -10.8594 Q2.8255 -11.9531 4.3724 -11.9531 Q6.1068 -11.9531 7.1068 -10.8047 Q8.1068 -9.6562 8.0599 -7.2969 L2.9036 -7.2969 Q2.9349 -6.375 3.4114 -5.8672 Q3.888 -5.3594 4.5911 -5.3594 Q5.0755 -5.3594 5.4036 -5.625 Q5.7318 -5.8906 5.9036 -6.4688 ZM6.0286 -8.5625 Q5.9974 -9.4531 5.5599 -9.9141 Q5.1224 -10.375 4.4974 -10.375 Q3.8255 -10.375 3.3724 -9.8906 Q2.9349 -9.3906 2.9505 -8.5625 L6.0286 -8.5625 ZM15.5955 -4 L13.533 -4 L13.533 -11.7812 L15.4548 -11.7812 L15.4548 -10.6719 Q15.9392 -11.4531 16.3298 -11.7031 Q16.7205 -11.9531 17.2205 -11.9531 Q17.9236 -11.9531 18.5798 -11.5625 L17.9392 -9.7656 Q17.4236 -10.1094 16.9705 -10.1094 Q16.533 -10.1094 16.2361 -9.8672 Q15.9392 -9.625 15.7673 -9.0078 Q15.5955 -8.3906 15.5955 -6.4062 L15.5955 -4 ZM13.5955 -15.1562 L15.2673 -15.1562 L16.0486 -14.0625 L16.908 -15.1562 L18.5642 -15.1562 L17.0486 -13 L15.1423 -13 L13.5955 -15.1562 ZM19.3303 -4 L19.3303 -11.7812 L21.3928 -11.7812 L21.3928 -4 L19.3303 -4 ZM18.9553 -13 L19.9553 -15.1875 L22.2678 -15.1875 L20.2522 -13 L18.9553 -13 ZM22.5742 -4 L22.5742 -5.6094 L25.4961 -8.9531 Q26.1992 -9.7656 26.5429 -10.1094 Q26.1992 -10.0938 25.6054 -10.0938 L22.8554 -10.0781 L22.8554 -11.7812 L29.2929 -11.7812 L29.2929 -10.3281 L26.3086 -6.8906 L25.2617 -5.7656 Q26.1211 -5.8125 26.3242 -5.8125 L29.5117 -5.8125 L29.5117 -4 L22.5742 -4 ZM35.2304 -6.4688 L37.2773 -6.125 Q36.8867 -5 36.0351 -4.4141 Q35.1836 -3.8281 33.9023 -3.8281 Q31.8711 -3.8281 30.9023 -5.1562 Q30.1211 -6.2188 30.1211 -7.8281 Q30.1211 -9.7656 31.1367 -10.8594 Q32.1523 -11.9531 33.6992 -11.9531 Q35.4336 -11.9531 36.4336 -10.8047 Q37.4336 -9.6562 37.3867 -7.2969 L32.2304 -7.2969 Q32.2617 -6.375 32.7383 -5.8672 Q33.2148 -5.3594 33.9179 -5.3594 Q34.4023 -5.3594 34.7304 -5.625 Q35.0586 -5.8906 35.2304 -6.4688 ZM35.3554 -8.5625 Q35.3242 -9.4531 34.8867 -9.9141 Q34.4492 -10.375 33.8242 -10.375 Q33.1523 -10.375 32.6992 -9.8906 Q32.2617 -9.3906 32.2773 -8.5625 L35.3554 -8.5625 ZM45.9597 -4 L43.8972 -4 L43.8972 -7.9688 Q43.8972 -9.2344 43.7644 -9.6016 Q43.6315 -9.9688 43.3347 -10.1719 Q43.0378 -10.375 42.6159 -10.375 Q42.0847 -10.375 41.6628 -10.0859 Q41.2409 -9.7969 41.0847 -9.3125 Q40.9284 -8.8281 40.9284 -7.5156 L40.9284 -4 L38.8659 -4 L38.8659 -11.7812 L40.7722 -11.7812 L40.7722 -10.6406 Q41.7878 -11.9531 43.3347 -11.9531 Q44.0222 -11.9531 44.5847 -11.7109 Q45.1472 -11.4688 45.4362 -11.0859 Q45.7253 -10.7031 45.8425 -10.2188 Q45.9597 -9.7344 45.9597 -8.8281 L45.9597 -4 ZM47.8342 -4 L47.8342 -11.7812 L49.8967 -11.7812 L49.8967 -4 L47.8342 -4 ZM47.4592 -13 L48.4592 -15.1875 L50.7717 -15.1875 L48.756 -13 L47.4592 -13 Z"
    /></g
    ><g style="stroke-linecap:butt; fill:rgb(0,114,189); text-rendering:geometricPrecision; image-rendering:optimizeQuality; color-rendering:optimizeQuality; stroke-linejoin:round; stroke:rgb(0,114,189); color-interpolation:linearRGB; stroke-width:0.6667;"
    ><path d="M73 88.1667 L73.5787 148.2074 L74.1573 199.8696 L74.736 243.2061 L75.3147 278.417 L75.8933 305.8291 L76.472 325.874 L77.0507 339.0677 L77.6293 345.9912 L78.208 347.2712 L78.7867 343.5636 L79.3653 335.5378 L79.944 323.8624 L80.5227 309.1931 L81.1013 292.162 L81.68 273.3689 L82.2587 253.3741 L82.8373 232.6925 L83.416 211.7898 L83.9947 191.0799 L84.5733 170.923 L85.152 151.6258 L85.7307 133.4424 L86.3093 116.5754 L86.888 101.1787 L87.4667 87.3605 L88.0453 75.1869 L88.624 64.6853 L89.2027 55.8491 L89.7813 48.6415 L90.36 43 L90.9387 38.8409 L91.5173 36.0627 L92.096 34.5509 L92.6747 34.1812 L93.2533 34.8231 L93.832 36.3432 L94.4107 38.6078 L94.9893 41.4855 L95.568 44.8495 L96.1467 48.5792 L96.7253 52.5616 L97.304 56.6928 L97.8827 60.8787 L98.4613 65.0353 L99.04 69.0894 L99.6187 72.9786 L100.1973 76.6508 L100.776 80.0644 L101.3547 83.1875 L101.9333 85.9976 L102.512 88.4803 L103.0907 90.6295 L103.6693 92.4456 L104.248 93.9352 L104.8267 95.1105 L105.4053 95.9875 L105.984 96.5861 L106.5627 96.929 L107.1413 97.0409 L107.72 96.9475 L108.2987 96.6756 L108.8773 96.2518 L109.456 95.7024 L110.0347 95.053 L110.6133 94.3278 L111.192 93.5494 L111.7707 92.739 L112.3493 91.9154 L112.928 91.0958 L113.5067 90.295 L114.0853 89.5257 L114.664 88.7986 L115.2427 88.1222 L115.8213 87.5031 L116.4 86.946 L116.9787 86.454 L117.5573 86.0285 L118.136 85.6695 L118.7147 85.3759 L119.2933 85.1454 L119.872 84.9748 L120.4507 84.8602 L121.0293 84.7972 L121.608 84.781 L122.1867 84.8062 L122.7653 84.8678 L123.344 84.9602 L123.9227 85.0783 L124.5013 85.2169 L125.08 85.3712 L125.6587 85.5366 L126.2373 85.7088 L126.816 85.884 L127.3947 86.0587 L127.9733 86.23 L128.552 86.3953 L129.1307 86.5523 L129.7093 86.6993 L130.288 86.835 L130.8667 86.9583 L131.4453 87.0686 L132.024 87.1657 L132.6027 87.2494 L133.1813 87.3199 L133.76 87.3778 L134.3387 87.4236 L134.9173 87.458 L135.496 87.482 L136.0747 87.4965 L136.6533 87.5025 L137.232 87.5011 L137.8107 87.4933 L138.3893 87.4803 L138.968 87.463 L139.5467 87.4424 L140.1253 87.4195 L140.704 87.395 L141.2827 87.3699 L141.8613 87.3446 L142.44 87.32 L143.0187 87.2965 L143.5973 87.2745 L144.176 87.2544 L144.7547 87.2365 L145.3333 87.2211 L145.912 87.2081 L146.4907 87.1978 L147.0693 87.19 L147.648 87.1849 L148.2267 87.1823 L148.8053 87.182 L149.384 87.184 L149.9627 87.1881 L150.5413 87.194 L151.12 87.2016 L151.6987 87.2106 L152.2773 87.2209 L152.856 87.2323 L153.4347 87.2444 L154.0133 87.2572 L154.592 87.2705 L155.1707 87.284 L155.7493 87.2976 L156.328 87.3112 L156.9067 87.3247 L157.4853 87.3379 L158.064 87.3508 L158.6427 87.3632 L159.2213 87.3752 L159.8 87.3866 L160.3787 87.3975 L160.9573 87.4079 L161.536 87.4176 L162.1147 87.4268 L162.6933 87.4355 L163.272 87.4436 L163.8507 87.4512 L164.4293 87.4584 L165.008 87.4651 L165.5867 87.4715 L166.1653 87.4775 L166.744 87.4832 L167.3227 87.4887 L167.9013 87.494 L168.48 87.499 L169.0587 87.504 L169.6373 87.5088 L170.216 87.5136 L170.7947 87.5183 L171.3733 87.523 L171.952 87.5277 L172.5307 87.5324 L173.1093 87.5372 L173.688 87.542 L174.2667 87.5469 L174.8453 87.5518 L175.424 87.5568 L176.0027 87.5619 L176.5813 87.5671 L177.16 87.5723 L177.7387 87.5776 L178.3173 87.5829 L178.896 87.5883 L179.4747 87.5937 L180.0533 87.5992 L180.632 87.6047 L181.2107 87.6102 L181.7893 87.6157 L182.368 87.6212 L182.9467 87.6267 L183.5253 87.6322 L184.104 87.6377 L184.6827 87.6432 L185.2613 87.6486 L185.84 87.654 L186.4187 87.6593 L186.9973 87.6646 L187.576 87.6699 L188.1547 87.6751 L188.7333 87.6802 L189.312 87.6853 L189.8907 87.6903 L190.4693 87.6953 L191.048 87.7002 L191.6267 87.7051 L192.2053 87.7099 L192.784 87.7147 L193.3627 87.7194 L193.9413 87.7241 L194.52 87.7287 L195.0987 87.7333 L195.6773 87.7379 L196.256 87.7423 L196.8347 87.7468 L197.4133 87.7512 L197.992 87.7556 L198.5707 87.76 L199.1493 87.7643 L199.728 87.7686 L200.3067 87.7728 L200.8853 87.777 L201.464 87.7812 L202.0427 87.7854 L202.6213 87.7895 L203.2 87.7937 L203.7787 87.7977 L204.3573 87.8018 L204.936 87.8058 L205.5147 87.8099 L206.0933 87.8138 L206.672 87.8178 L207.2507 87.8217 L207.8293 87.8256 L208.408 87.8295 L208.9867 87.8334 L209.5653 87.8372 L210.144 87.841 L210.7227 87.8448 L211.3013 87.8485 L211.88 87.8522 L212.4587 87.8559 L213.0373 87.8596 L213.616 87.8632 L214.1947 87.8668 L214.7733 87.8704 L215.352 87.874 L215.9307 87.8775 L216.5093 87.881 L217.088 87.8844 L217.6667 87.8879 L218.2453 87.8913 L218.824 87.8947 L219.4027 87.898 L219.9813 87.9014 L220.56 87.9047 L221.1387 87.9079 L221.7173 87.9112 L222.296 87.9144 L222.8747 87.9176 L223.4533 87.9208 L224.032 87.9239 L224.6107 87.927 L225.1893 87.9301 L225.768 87.9332 L226.3467 87.9362 L226.9253 87.9392 L227.504 87.9422 L228.0827 87.9452 L228.6613 87.9481 L229.24 87.951 L229.8187 87.9539 L230.3973 87.9568 L230.976 87.9596 L231.5547 87.9624 L232.1333 87.9652 L232.712 87.968 L233.2907 87.9707 L233.8693 87.9734 L234.448 87.9761 L235.0267 87.9788 L235.6053 87.9815 L236.184 87.9841 L236.7627 87.9867 L237.3413 87.9893 L237.92 87.9918 L238.4987 87.9944 L239.0773 87.9969 L239.656 87.9994 L240.2347 88.0019 L240.8133 88.0043 L241.392 88.0067 L241.9707 88.0091 L242.5493 88.0115 L243.128 88.0139 L243.7067 88.0162 L244.2853 88.0186 L244.864 88.0209 L245.4427 88.0231 L246.0213 88.0254 L246.6 88.0276 L247.1787 88.0298 L247.7573 88.032 L248.336 88.0342 L248.9147 88.0364 L249.4933 88.0385 L250.072 88.0406 L250.6507 88.0427 L251.2293 88.0448 L251.808 88.0469 L252.3867 88.0489 L252.9653 88.0509 L253.544 88.0529 L254.1227 88.0549 L254.7013 88.0568 L255.28 88.0588 L255.8587 88.0607 L256.4373 88.0626 L257.016 88.0645 L257.5947 88.0664 L258.1733 88.0682 L258.752 88.0701 L259.3307 88.0719 L259.9093 88.0737 L260.488 88.0754 L261.0667 88.0772 L261.6453 88.0789 L262.224 88.0807 L262.8027 88.0824 L263.3813 88.0841 L263.96 88.0857 L264.5387 88.0874 L265.1173 88.089 L265.696 88.0907 L266.2747 88.0923 L266.8533 88.0938 L267.432 88.0954 L268.0107 88.097 L268.5893 88.0985 L269.168 88.1 L269.7467 88.1016 L270.3253 88.103 L270.904 88.1045 L271.4827 88.106 L272.0613 88.1074 L272.64 88.1089 L273.2187 88.1103 L273.7973 88.1117 L274.376 88.1131 L274.9547 88.1144 L275.5333 88.1158 L276.112 88.1171 L276.6907 88.1185 L277.2693 88.1198 L277.848 88.1211 L278.4267 88.1224 L279.0053 88.1236 L279.584 88.1249 L280.1627 88.1261 L280.7413 88.1273 L281.32 88.1286 L281.8987 88.1298 L282.4773 88.1309 L283.056 88.1321 L283.6347 88.1333 L284.2133 88.1344 L284.792 88.1356 L285.3707 88.1367 L285.9493 88.1378 L286.528 88.1389 L287.1067 88.14 L287.6853 88.141 L288.264 88.1421 L288.8427 88.1431 L289.4213 88.1441 L290 88.1452 L290.5787 88.1462 L291.1573 88.1472 L291.736 88.1481 L292.3147 88.1491 L292.8933 88.1501 L293.472 88.151 L294.0507 88.152 L294.6293 88.1529 L295.208 88.1538 L295.7867 88.1547 L296.3653 88.1556 L296.944 88.1565 L297.5227 88.1573 L298.1013 88.1582 L298.68 88.159 L299.2587 88.1599 L299.8373 88.1607 L300.416 88.1615 L300.9947 88.1623 L301.5733 88.1631 L302.152 88.1639 L302.7307 88.1647 L303.3093 88.1654 L303.888 88.1662 L304.4667 88.1669 L305.0453 88.1676 L305.624 88.1684 L306.2027 88.1691 L306.7813 88.1698 L307.36 88.1705 L307.9387 88.1712 L308.5173 88.1718 L309.096 88.1725 L309.6747 88.1731 L310.2533 88.1738 L310.832 88.1744 L311.4107 88.175 L311.9893 88.1757 L312.568 88.1763 L313.1467 88.1769 L313.7253 88.1775 L314.304 88.1781 L314.8827 88.1786 L315.4613 88.1792 L316.04 88.1797 L316.6187 88.1803 L317.1973 88.1808 L317.776 88.1814 L318.3546 88.1819 L318.9333 88.1824 L319.512 88.1829 L320.0907 88.1834 L320.6693 88.1839 L321.248 88.1844 L321.8267 88.1849 L322.4053 88.1853 L322.984 88.1858 L323.5627 88.1863 L324.1414 88.1867 L324.72 88.1872 L325.2987 88.1876 L325.8773 88.188 L326.456 88.1884 L327.0347 88.1888 L327.6133 88.1892 L328.192 88.1896 L328.7707 88.19 L329.3493 88.1904 L329.928 88.1908 L330.5067 88.1912 L331.0853 88.1915 L331.664 88.1919 L332.2427 88.1922 L332.8213 88.1926 L333.4 88.1929 L333.9787 88.1933 L334.5573 88.1936 L335.136 88.1939 L335.7147 88.1942 L336.2933 88.1945 L336.872 88.1948 L337.4507 88.1951 L338.0293 88.1954 L338.608 88.1957 L339.1867 88.196 L339.7654 88.1962 L340.344 88.1965 L340.9227 88.1968 L341.5013 88.197 L342.08 88.1973 L342.6587 88.1975 L343.2373 88.1977 L343.816 88.198 L344.3947 88.1982 L344.9733 88.1984 L345.552 88.1986 L346.1306 88.1989 L346.7093 88.1991 L347.288 88.1993 L347.8667 88.1995 L348.4453 88.1997 L349.024 88.1999 L349.6027 88.2 L350.1813 88.2002 L350.76 88.2004 L351.3387 88.2006 L351.9174 88.2007 L352.496 88.2009 L353.0747 88.201 L353.6533 88.2012 L354.232 88.2013 L354.8107 88.2015 L355.3893 88.2016 L355.968 88.2018 L356.5467 88.2019 L357.1253 88.202 L357.704 88.2021 L358.2827 88.2022 L358.8613 88.2024 L359.44 88.2025 L360.0187 88.2026 L360.5973 88.2027 L361.176 88.2028 L361.7546 88.2029 L362.3333 88.203 L362.912 88.203 L363.4907 88.2031 L364.0693 88.2032 L364.648 88.2033 L365.2267 88.2034 L365.8053 88.2034 L366.384 88.2035 L366.9627 88.2036 L367.5414 88.2036 L368.12 88.2037 L368.6987 88.2037 L369.2773 88.2038 L369.856 88.2038 L370.4347 88.2039 L371.0133 88.2039 L371.592 88.2039 L372.1707 88.204 L372.7493 88.204 L373.328 88.204 L373.9066 88.2041 L374.4853 88.2041 L375.064 88.2041 L375.6427 88.2041 L376.2213 88.2041 L376.8 88.2041 L377.3787 88.2042 L377.9573 88.2042 L378.536 88.2042 L379.1147 88.2042 L379.6934 88.2042 L380.272 88.2042 L380.8507 88.2042 L381.4293 88.2041 L382.008 88.2041 L382.5867 88.2041 L383.1653 88.2041 L383.744 88.2041 L384.3227 88.2041 L384.9013 88.204 L385.48 88.204 L386.0587 88.204 L386.6373 88.204 L387.216 88.2039 L387.7947 88.2039 L388.3733 88.2039 L388.952 88.2038 L389.5306 88.2038 L390.1093 88.2037 L390.688 88.2037 L391.2667 88.2037 L391.8453 88.2036 L392.424 88.2036 L393.0027 88.2035 L393.5813 88.2034 L394.16 88.2034 L394.7387 88.2033 L395.3174 88.2033 L395.896 88.2032 L396.4747 88.2032 L397.0533 88.2031 L397.632 88.203 L398.2107 88.203 L398.7893 88.2029 L399.368 88.2028 L399.9467 88.2028 L400.5253 88.2027 L401.104 88.2026 L401.6826 88.2025 L402.2613 88.2024 L402.84 88.2024 L403.4187 88.2023 L403.9973 88.2022 L404.576 88.2021 L405.1547 88.202 L405.7333 88.202 L406.312 88.2019 L406.8907 88.2018 L407.4694 88.2017 L408.048 88.2016 L408.6267 88.2015 L409.2053 88.2014 L409.784 88.2013 L410.3627 88.2012 L410.9413 88.2011 L411.52 88.201 L412.0987 88.2009 L412.6773 88.2008 L413.256 88.2007 L413.8347 88.2006 L414.4133 88.2005 L414.992 88.2004 L415.5707 88.2003 L416.1493 88.2002 L416.728 88.2001 L417.3066 88.2 L417.8853 88.1999 L418.464 88.1998 L419.0427 88.1997 L419.6213 88.1996 L420.2 88.1995 L420.7787 88.1994 L421.3573 88.1993 L421.936 88.1992 L422.5147 88.199 L423.0934 88.1989 L423.672 88.1988 L424.2507 88.1987 L424.8293 88.1986 L425.408 88.1985 L425.9867 88.1983 L426.5653 88.1982 L427.144 88.1981 L427.7227 88.198 L428.3013 88.1979 L428.88 88.1978 L429.4586 88.1976 L430.0373 88.1975 L430.616 88.1974 L431.1947 88.1973 L431.7733 88.1972 L432.352 88.197 L432.9307 88.1969 L433.5093 88.1968 L434.088 88.1967 L434.6667 88.1965 L435.2454 88.1964 L435.824 88.1963 L436.4027 88.1962 L436.9813 88.196 L437.56 88.1959 L438.1387 88.1958 L438.7173 88.1957 L439.296 88.1955 L439.8747 88.1954 L440.4533 88.1953 L441.032 88.1952 L441.6107 88.195 L442.1893 88.1949 L442.768 88.1948 L443.3467 88.1946 L443.9253 88.1945 L444.504 88.1944 L445.0826 88.1943 L445.6613 88.1941 L446.24 88.194 L446.8187 88.1939 L447.3973 88.1937 L447.976 88.1936 L448.5547 88.1935 L449.1333 88.1934 L449.712 88.1932 L450.2907 88.1931 L450.8694 88.193 L451.448 88.1928 L452.0267 88.1927 L452.6053 88.1926 L453.184 88.1925 L453.7627 88.1923 L454.3413 88.1922 L454.92 88.1921 L455.4987 88.1919 L456.0773 88.1918 L456.656 88.1917 L457.2346 88.1915 L457.8133 88.1914 L458.392 88.1913 L458.9707 88.1912 L459.5493 88.191 L460.128 88.1909 L460.7067 88.1908 L461.2853 88.1906 L461.864 88.1905 L462.4427 88.1904 L463.0213 88.1903 L463.6 88.1901 L464.1787 88.19 L464.7573 88.1899 L465.336 88.1897 L465.9147 88.1896 L466.4933 88.1895 L467.072 88.1894 L467.6507 88.1892 L468.2293 88.1891 L468.808 88.189 L469.3867 88.1889 L469.9653 88.1887 L470.544 88.1886 L471.1227 88.1885 L471.7013 88.1883 L472.28 88.1882 L472.8586 88.1881 L473.4373 88.188 L474.016 88.1878 L474.5947 88.1877 L475.1733 88.1876 L475.752 88.1875 L476.3307 88.1873 L476.9093 88.1872 L477.488 88.1871 L478.0667 88.187 L478.6454 88.1869 L479.224 88.1867 L479.8027 88.1866 L480.3813 88.1865 L480.96 88.1864 L481.5387 88.1862 L482.1173 88.1861 L482.696 88.186 L483.2747 88.1859 L483.8533 88.1858 L484.432 88.1856 L485.0107 88.1855 L485.5893 88.1854 L486.168 88.1853 L486.7467 88.1852 L487.3253 88.185 L487.904 88.1849 L488.4827 88.1848 L489.0613 88.1847 L489.64 88.1846 L490.2187 88.1845 L490.7973 88.1843 L491.376 88.1842 L491.9547 88.1841 L492.5333 88.184 L493.112 88.1839 L493.6907 88.1838 L494.2693 88.1837 L494.848 88.1835 L495.4267 88.1834 L496.0053 88.1833 L496.584 88.1832 L497.1627 88.1831 L497.7413 88.183 L498.32 88.1829 L498.8987 88.1828 L499.4773 88.1826 L500.056 88.1825 L500.6347 88.1824 L501.2133 88.1823 L501.792 88.1822 L502.3707 88.1821 L502.9493 88.182 L503.528 88.1819 L504.1067 88.1818 L504.6853 88.1817 L505.264 88.1816 L505.8427 88.1815 L506.4213 88.1814 L507 88.1812" style="fill:none; fill-rule:evenodd;"
      /><path d="M73 88.1667 L73.5787 141.8883 L74.1573 189.4402 L74.736 230.733 L75.3147 265.6667 L75.8933 294.1698 L76.472 316.2383 L77.0507 331.9681 L77.6293 341.5772 L78.208 345.4135 L78.7867 343.9489 L79.3653 337.7582 L79.944 327.4904 L80.5227 313.8334 L81.1013 297.4822 L81.68 279.1088 L82.2587 259.3413 L82.8373 238.75 L83.416 217.8392 L83.9947 197.0466 L84.5733 176.7438 L85.152 157.2413 L85.7307 138.7928 L86.3093 121.6005 L86.888 105.8196 L87.4667 91.5632 L88.0453 78.9054 L88.624 67.8852 L89.2027 58.5094 L89.7813 50.7561 L90.36 44.5772 L90.9387 39.9022 L91.5173 36.6414 L92.096 34.6893 L92.6747 33.9282 L93.2533 34.2316 L93.832 35.4678 L94.4107 37.5028 L94.9893 40.2034 L95.568 43.4395 L96.1467 47.0867 L96.7253 51.0275 L97.304 55.1534 L97.8827 59.3653 L98.4613 63.5746 L99.04 67.7036 L99.6187 71.6854 L100.1973 75.4641 L100.776 78.9941 L101.3547 82.2402 L101.9333 85.1766 L102.512 87.7864 L103.0907 90.0608 L103.6693 91.9982 L104.248 93.6035 L104.8267 94.8872 L105.4053 95.8644 L105.984 96.554 L106.5627 96.9782 L107.1413 97.1611 L107.72 97.1287 L108.2987 96.9077 L108.8773 96.5249 L109.456 96.0073 L110.0347 95.3807 L110.6133 94.67 L111.192 93.8987 L111.7707 93.0886 L112.3493 92.2594 L112.928 91.4291 L113.5067 90.6132 L114.0853 89.8253 L114.664 89.0768 L115.2427 88.3769 L115.8213 87.733 L116.4 87.1503 L116.9787 86.6325 L117.5573 86.1816 L118.136 85.7979 L118.7147 85.4807 L119.2933 85.2279 L119.872 85.0368 L120.4507 84.9035 L121.0293 84.8238 L121.608 84.7928 L122.1867 84.8055 L122.7653 84.8564 L123.344 84.9402 L123.9227 85.0516 L124.5013 85.1853 L125.08 85.3364 L125.6587 85.5 L126.2373 85.6719 L126.816 85.848 L127.3947 86.0247 L127.9733 86.1988 L128.552 86.3675 L129.1307 86.5286 L129.7093 86.6801 L130.288 86.8205 L130.8667 86.9487 L131.4453 87.064 L132.024 87.1659 L132.6027 87.2543 L133.1813 87.3294 L133.76 87.3915 L134.3387 87.4411 L134.9173 87.4791 L135.496 87.5062 L136.0747 87.5234 L136.6533 87.5317 L137.232 87.5322 L137.8107 87.526 L138.3893 87.5141 L138.968 87.4976 L139.5467 87.4774 L140.1253 87.4546 L140.704 87.43 L141.2827 87.4044 L141.8613 87.3786 L142.44 87.3532 L143.0187 87.3287 L143.5973 87.3057 L144.176 87.2845 L144.7547 87.2655 L145.3333 87.2488 L145.912 87.2346 L146.4907 87.2231 L147.0693 87.2142 L147.648 87.2079 L148.2267 87.2042 L148.8053 87.203 L149.384 87.2041 L149.9627 87.2073 L150.5413 87.2124 L151.12 87.2194 L151.6987 87.2278 L152.2773 87.2376 L152.856 87.2485 L153.4347 87.2603 L154.0133 87.2728 L154.592 87.2858 L155.1707 87.2991 L155.7493 87.3127 L156.328 87.3262 L156.9067 87.3396 L157.4853 87.3528 L158.064 87.3657 L158.6427 87.3782 L159.2213 87.3902 L159.8 87.4017 L160.3787 87.4126 L160.9573 87.423 L161.536 87.4328 L162.1147 87.442 L162.6933 87.4507 L163.272 87.4589 L163.8507 87.4665 L164.4293 87.4737 L165.008 87.4804 L165.5867 87.4867 L166.1653 87.4927 L166.744 87.4983 L167.3227 87.5037 L167.9013 87.5089 L168.48 87.5138 L169.0587 87.5186 L169.6373 87.5233 L170.216 87.5279 L170.7947 87.5325 L171.3733 87.537 L171.952 87.5416 L172.5307 87.5462 L173.1093 87.5508 L173.688 87.5554 L174.2667 87.5601 L174.8453 87.5649 L175.424 87.5697 L176.0027 87.5746 L176.5813 87.5796 L177.16 87.5847 L177.7387 87.5898 L178.3173 87.595 L178.896 87.6002 L179.4747 87.6055 L180.0533 87.6108 L180.632 87.6162 L181.2107 87.6215 L181.7893 87.6269 L182.368 87.6323 L182.9467 87.6377 L183.5253 87.6431 L184.104 87.6485 L184.6827 87.6538 L185.2613 87.6591 L185.84 87.6644 L186.4187 87.6696 L186.9973 87.6748 L187.576 87.68 L188.1547 87.6851 L188.7333 87.6901 L189.312 87.6951 L189.8907 87.7 L190.4693 87.7049 L191.048 87.7097 L191.6267 87.7145 L192.2053 87.7192 L192.784 87.7239 L193.3627 87.7285 L193.9413 87.7331 L194.52 87.7376 L195.0987 87.7421 L195.6773 87.7466 L196.256 87.751 L196.8347 87.7553 L197.4133 87.7596 L197.992 87.7639 L198.5707 87.7682 L199.1493 87.7724 L199.728 87.7766 L200.3067 87.7808 L200.8853 87.7849 L201.464 87.789 L202.0427 87.7931 L202.6213 87.7971 L203.2 87.8011 L203.7787 87.8051 L204.3573 87.8091 L204.936 87.813 L205.5147 87.817 L206.0933 87.8209 L206.672 87.8247 L207.2507 87.8286 L207.8293 87.8324 L208.408 87.8362 L208.9867 87.84 L209.5653 87.8437 L210.144 87.8474 L210.7227 87.8511 L211.3013 87.8548 L211.88 87.8584 L212.4587 87.862 L213.0373 87.8656 L213.616 87.8692 L214.1947 87.8727 L214.7733 87.8762 L215.352 87.8797 L215.9307 87.8831 L216.5093 87.8865 L217.088 87.8899 L217.6667 87.8933 L218.2453 87.8966 L218.824 87.8999 L219.4027 87.9032 L219.9813 87.9065 L220.56 87.9097 L221.1387 87.9129 L221.7173 87.9161 L222.296 87.9193 L222.8747 87.9224 L223.4533 87.9255 L224.032 87.9285 L224.6107 87.9316 L225.1893 87.9346 L225.768 87.9376 L226.3467 87.9406 L226.9253 87.9435 L227.504 87.9464 L228.0827 87.9493 L228.6613 87.9522 L229.24 87.9551 L229.8187 87.9579 L230.3973 87.9607 L230.976 87.9635 L231.5547 87.9662 L232.1333 87.969 L232.712 87.9717 L233.2907 87.9744 L233.8693 87.977 L234.448 87.9797 L235.0267 87.9823 L235.6053 87.9849 L236.184 87.9875 L236.7627 87.99 L237.3413 87.9925 L237.92 87.995 L238.4987 87.9975 L239.0773 88 L239.656 88.0024 L240.2347 88.0049 L240.8133 88.0073 L241.392 88.0096 L241.9707 88.012 L242.5493 88.0143 L243.128 88.0166 L243.7067 88.0189 L244.2853 88.0212 L244.864 88.0235 L245.4427 88.0257 L246.0213 88.0279 L246.6 88.0301 L247.1787 88.0323 L247.7573 88.0344 L248.336 88.0365 L248.9147 88.0387 L249.4933 88.0407 L250.072 88.0428 L250.6507 88.0449 L251.2293 88.0469 L251.808 88.0489 L252.3867 88.0509 L252.9653 88.0529 L253.544 88.0548 L254.1227 88.0568 L254.7013 88.0587 L255.28 88.0606 L255.8587 88.0625 L256.4373 88.0643 L257.016 88.0662 L257.5947 88.068 L258.1733 88.0698 L258.752 88.0716 L259.3307 88.0734 L259.9093 88.0752 L260.488 88.0769 L261.0667 88.0786 L261.6453 88.0803 L262.224 88.082 L262.8027 88.0837 L263.3813 88.0854 L263.96 88.087 L264.5387 88.0886 L265.1173 88.0902 L265.696 88.0918 L266.2747 88.0934 L266.8533 88.0949 L267.432 88.0965 L268.0107 88.098 L268.5893 88.0995 L269.168 88.101 L269.7467 88.1025 L270.3253 88.104 L270.904 88.1054 L271.4827 88.1068 L272.0613 88.1082 L272.64 88.1096 L273.2187 88.111 L273.7973 88.1124 L274.376 88.1138 L274.9547 88.1151 L275.5333 88.1164 L276.112 88.1178 L276.6907 88.119 L277.2693 88.1203 L277.848 88.1216 L278.4267 88.1229 L279.0053 88.1241 L279.584 88.1253 L280.1627 88.1266 L280.7413 88.1278 L281.32 88.1289 L281.8987 88.1301 L282.4773 88.1313 L283.056 88.1324 L283.6347 88.1336 L284.2133 88.1347 L284.792 88.1358 L285.3707 88.1369 L285.9493 88.138 L286.528 88.1391 L287.1067 88.1401 L287.6853 88.1412 L288.264 88.1422 L288.8427 88.1432 L289.4213 88.1442 L290 88.1452 L290.5787 88.1462 L291.1573 88.1472 L291.736 88.1482 L292.3147 88.1491 L292.8933 88.15 L293.472 88.151 L294.0507 88.1519 L294.6293 88.1528 L295.208 88.1537 L295.7867 88.1546 L296.3653 88.1554 L296.944 88.1563 L297.5227 88.1572 L298.1013 88.158 L298.68 88.1588 L299.2587 88.1596 L299.8373 88.1605 L300.416 88.1613 L300.9947 88.162 L301.5733 88.1628 L302.152 88.1636 L302.7307 88.1643 L303.3093 88.1651 L303.888 88.1658 L304.4667 88.1665 L305.0453 88.1673 L305.624 88.168 L306.2027 88.1687 L306.7813 88.1694 L307.36 88.17 L307.9387 88.1707 L308.5173 88.1714 L309.096 88.172 L309.6747 88.1727 L310.2533 88.1733 L310.832 88.1739 L311.4107 88.1745 L311.9893 88.1751 L312.568 88.1758 L313.1467 88.1763 L313.7253 88.1769 L314.304 88.1775 L314.8827 88.1781 L315.4613 88.1786 L316.04 88.1792 L316.6187 88.1797 L317.1973 88.1802 L317.776 88.1808 L318.3546 88.1813 L318.9333 88.1818 L319.512 88.1823 L320.0907 88.1828 L320.6693 88.1833 L321.248 88.1837 L321.8267 88.1842 L322.4053 88.1847 L322.984 88.1851 L323.5627 88.1856 L324.1414 88.186 L324.72 88.1864 L325.2987 88.1869 L325.8773 88.1873 L326.456 88.1877 L327.0347 88.1881 L327.6133 88.1885 L328.192 88.1889 L328.7707 88.1893 L329.3493 88.1896 L329.928 88.19 L330.5067 88.1904 L331.0853 88.1907 L331.664 88.1911 L332.2427 88.1914 L332.8213 88.1918 L333.4 88.1921 L333.9787 88.1924 L334.5573 88.1927 L335.136 88.1931 L335.7147 88.1934 L336.2933 88.1937 L336.872 88.194 L337.4507 88.1943 L338.0293 88.1945 L338.608 88.1948 L339.1867 88.1951 L339.7654 88.1954 L340.344 88.1956 L340.9227 88.1959 L341.5013 88.1961 L342.08 88.1964 L342.6587 88.1966 L343.2373 88.1968 L343.816 88.1971 L344.3947 88.1973 L344.9733 88.1975 L345.552 88.1977 L346.1306 88.1979 L346.7093 88.1982 L347.288 88.1983 L347.8667 88.1985 L348.4453 88.1987 L349.024 88.1989 L349.6027 88.1991 L350.1813 88.1993 L350.76 88.1995 L351.3387 88.1996 L351.9174 88.1998 L352.496 88.1999 L353.0747 88.2001 L353.6533 88.2002 L354.232 88.2004 L354.8107 88.2005 L355.3893 88.2007 L355.968 88.2008 L356.5467 88.2009 L357.1253 88.2011 L357.704 88.2012 L358.2827 88.2013 L358.8613 88.2014 L359.44 88.2015 L360.0187 88.2016 L360.5973 88.2017 L361.176 88.2018 L361.7546 88.2019 L362.3333 88.202 L362.912 88.2021 L363.4907 88.2022 L364.0693 88.2023 L364.648 88.2023 L365.2267 88.2024 L365.8053 88.2025 L366.384 88.2025 L366.9627 88.2026 L367.5414 88.2027 L368.12 88.2027 L368.6987 88.2028 L369.2773 88.2028 L369.856 88.2029 L370.4347 88.2029 L371.0133 88.2029 L371.592 88.203 L372.1707 88.203 L372.7493 88.2031 L373.328 88.2031 L373.9066 88.2031 L374.4853 88.2031 L375.064 88.2032 L375.6427 88.2032 L376.2213 88.2032 L376.8 88.2032 L377.3787 88.2032 L377.9573 88.2032 L378.536 88.2032 L379.1147 88.2032 L379.6934 88.2032 L380.272 88.2032 L380.8507 88.2032 L381.4293 88.2032 L382.008 88.2032 L382.5867 88.2032 L383.1653 88.2032 L383.744 88.2031 L384.3227 88.2031 L384.9013 88.2031 L385.48 88.2031 L386.0587 88.2031 L386.6373 88.203 L387.216 88.203 L387.7947 88.203 L388.3733 88.2029 L388.952 88.2029 L389.5306 88.2029 L390.1093 88.2028 L390.688 88.2028 L391.2667 88.2027 L391.8453 88.2027 L392.424 88.2026 L393.0027 88.2026 L393.5813 88.2025 L394.16 88.2025 L394.7387 88.2024 L395.3174 88.2024 L395.896 88.2023 L396.4747 88.2023 L397.0533 88.2022 L397.632 88.2021 L398.2107 88.2021 L398.7893 88.202 L399.368 88.2019 L399.9467 88.2019 L400.5253 88.2018 L401.104 88.2017 L401.6826 88.2017 L402.2613 88.2016 L402.84 88.2015 L403.4187 88.2014 L403.9973 88.2013 L404.576 88.2013 L405.1547 88.2012 L405.7333 88.2011 L406.312 88.201 L406.8907 88.2009 L407.4694 88.2009 L408.048 88.2008 L408.6267 88.2007 L409.2053 88.2006 L409.784 88.2005 L410.3627 88.2004 L410.9413 88.2003 L411.52 88.2002 L412.0987 88.2001 L412.6773 88.2 L413.256 88.1999 L413.8347 88.1998 L414.4133 88.1997 L414.992 88.1996 L415.5707 88.1995 L416.1493 88.1994 L416.728 88.1993 L417.3066 88.1992 L417.8853 88.1991 L418.464 88.199 L419.0427 88.1989 L419.6213 88.1988 L420.2 88.1987 L420.7787 88.1986 L421.3573 88.1985 L421.936 88.1984 L422.5147 88.1983 L423.0934 88.1982 L423.672 88.1981 L424.2507 88.1979 L424.8293 88.1978 L425.408 88.1977 L425.9867 88.1976 L426.5653 88.1975 L427.144 88.1974 L427.7227 88.1973 L428.3013 88.1971 L428.88 88.197 L429.4586 88.1969 L430.0373 88.1968 L430.616 88.1967 L431.1947 88.1966 L431.7733 88.1964 L432.352 88.1963 L432.9307 88.1962 L433.5093 88.1961 L434.088 88.196 L434.6667 88.1958 L435.2454 88.1957 L435.824 88.1956 L436.4027 88.1955 L436.9813 88.1954 L437.56 88.1952 L438.1387 88.1951 L438.7173 88.195 L439.296 88.1949 L439.8747 88.1947 L440.4533 88.1946 L441.032 88.1945 L441.6107 88.1944 L442.1893 88.1942 L442.768 88.1941 L443.3467 88.194 L443.9253 88.1939 L444.504 88.1937 L445.0826 88.1936 L445.6613 88.1935 L446.24 88.1934 L446.8187 88.1932 L447.3973 88.1931 L447.976 88.193 L448.5547 88.1929 L449.1333 88.1927 L449.712 88.1926 L450.2907 88.1925 L450.8694 88.1924 L451.448 88.1922 L452.0267 88.1921 L452.6053 88.192 L453.184 88.1919 L453.7627 88.1917 L454.3413 88.1916 L454.92 88.1915 L455.4987 88.1914 L456.0773 88.1912 L456.656 88.1911 L457.2346 88.191 L457.8133 88.1908 L458.392 88.1907 L458.9707 88.1906 L459.5493 88.1905 L460.128 88.1903 L460.7067 88.1902 L461.2853 88.1901 L461.864 88.19 L462.4427 88.1898 L463.0213 88.1897 L463.6 88.1896 L464.1787 88.1895 L464.7573 88.1893 L465.336 88.1892 L465.9147 88.1891 L466.4933 88.189 L467.072 88.1888 L467.6507 88.1887 L468.2293 88.1886 L468.808 88.1885 L469.3867 88.1883 L469.9653 88.1882 L470.544 88.1881 L471.1227 88.188 L471.7013 88.1879 L472.28 88.1877 L472.8586 88.1876 L473.4373 88.1875 L474.016 88.1874 L474.5947 88.1872 L475.1733 88.1871 L475.752 88.187 L476.3307 88.1869 L476.9093 88.1868 L477.488 88.1866 L478.0667 88.1865 L478.6454 88.1864 L479.224 88.1863 L479.8027 88.1862 L480.3813 88.186 L480.96 88.1859 L481.5387 88.1858 L482.1173 88.1857 L482.696 88.1856 L483.2747 88.1854 L483.8533 88.1853 L484.432 88.1852 L485.0107 88.1851 L485.5893 88.185 L486.168 88.1849 L486.7467 88.1848 L487.3253 88.1846 L487.904 88.1845 L488.4827 88.1844 L489.0613 88.1843 L489.64 88.1842 L490.2187 88.1841 L490.7973 88.184 L491.376 88.1838 L491.9547 88.1837 L492.5333 88.1836 L493.112 88.1835 L493.6907 88.1834 L494.2693 88.1833 L494.848 88.1832 L495.4267 88.1831 L496.0053 88.1829 L496.584 88.1828 L497.1627 88.1827 L497.7413 88.1826 L498.32 88.1825 L498.8987 88.1824 L499.4773 88.1823 L500.056 88.1822 L500.6347 88.1821 L501.2133 88.182 L501.792 88.1819 L502.3707 88.1818 L502.9493 88.1817 L503.528 88.1815 L504.1067 88.1814 L504.6853 88.1813 L505.264 88.1812 L505.8427 88.1811 L506.4213 88.181 L507 88.1809" style="fill:none; fill-rule:evenodd; stroke:rgb(217,83,25);"
    /></g
    ><g style="fill:white; text-rendering:optimizeSpeed; color-rendering:optimizeSpeed; image-rendering:optimizeSpeed; shape-rendering:crispEdges; stroke:white; color-interpolation:sRGB;"
    ><path style="stroke:none;" d="M496 78 L496 42 L338 42 L338 78 Z"
    /></g
    ><g style="text-rendering:geometricPrecision; color-rendering:optimizeQuality; color-interpolation:linearRGB; image-rendering:optimizeQuality;" transform="translate(385,51.863)"
    ><path style="stroke:none;" d="M0.7656 5 L0.7656 -3.5938 L1.8281 -3.5938 L1.8281 5 L0.7656 5 ZM3.4629 -2.375 L3.4629 -3.5938 L4.5254 -3.5938 L4.5254 -2.375 L3.4629 -2.375 ZM3.4629 5 L3.4629 -1.2188 L4.5254 -1.2188 L4.5254 5 L3.4629 5 ZM6.1289 5 L6.1289 -1.2188 L7.0664 -1.2188 L7.0664 -0.3438 Q7.7539 -1.3594 9.0508 -1.3594 Q9.6133 -1.3594 10.0898 -1.1562 Q10.5664 -0.9531 10.8008 -0.625 Q11.0352 -0.2969 11.1289 0.1406 Q11.1758 0.4375 11.1758 1.1719 L11.1758 5 L10.1289 5 L10.1289 1.2188 Q10.1289 0.5625 10.0039 0.25 Q9.8789 -0.0625 9.5664 -0.2578 Q9.2539 -0.4531 8.832 -0.4531 Q8.1602 -0.4531 7.668 -0.0234 Q7.1758 0.4062 7.1758 1.5938 L7.1758 5 L6.1289 5 ZM17.0527 3 L18.1465 3.125 Q17.8965 4.0781 17.1934 4.6094 Q16.4902 5.1406 15.4121 5.1406 Q14.0527 5.1406 13.248 4.2969 Q12.4434 3.4531 12.4434 1.9375 Q12.4434 0.375 13.2559 -0.4922 Q14.0684 -1.3594 15.3496 -1.3594 Q16.5996 -1.3594 17.3887 -0.5156 Q18.1777 0.3281 18.1777 1.875 Q18.1777 1.9688 18.1777 2.1562 L13.5371 2.1562 Q13.5996 3.1875 14.1152 3.7266 Q14.6309 4.2656 15.4121 4.2656 Q15.9902 4.2656 16.4043 3.9609 Q16.8184 3.6562 17.0527 3 ZM13.5996 1.2969 L17.0684 1.2969 Q17.0059 0.5 16.6777 0.1094 Q16.1621 -0.5 15.3652 -0.5 Q14.6309 -0.5 14.1387 -0.0156 Q13.6465 0.4688 13.5996 1.2969 ZM23.5391 4.2344 Q22.9453 4.7344 22.4062 4.9375 Q21.8672 5.1406 21.2422 5.1406 Q20.2109 5.1406 19.6641 4.6406 Q19.1172 4.1406 19.1172 3.3594 Q19.1172 2.9062 19.3203 2.5234 Q19.5234 2.1406 19.8672 1.9141 Q20.2109 1.6875 20.6328 1.5781 Q20.9297 1.4844 21.5703 1.4062 Q22.8359 1.2656 23.4453 1.0469 Q23.4453 0.8281 23.4453 0.7812 Q23.4453 0.125 23.1484 -0.1406 Q22.7422 -0.4844 21.9453 -0.4844 Q21.2109 -0.4844 20.8516 -0.2266 Q20.4922 0.0312 20.3203 0.6875 L19.2891 0.5469 Q19.4297 -0.1094 19.7578 -0.5156 Q20.0859 -0.9219 20.6953 -1.1406 Q21.3047 -1.3594 22.1016 -1.3594 Q22.8984 -1.3594 23.3984 -1.1719 Q23.8984 -0.9844 24.1328 -0.7031 Q24.3672 -0.4219 24.4609 0.0156 Q24.5078 0.2812 24.5078 0.9844 L24.5078 2.3906 Q24.5078 3.8594 24.5781 4.25 Q24.6484 4.6406 24.8516 5 L23.7422 5 Q23.5859 4.6719 23.5391 4.2344 ZM23.4453 1.875 Q22.8672 2.1094 21.7266 2.2812 Q21.0703 2.375 20.8047 2.4922 Q20.5391 2.6094 20.3906 2.8281 Q20.2422 3.0469 20.2422 3.3281 Q20.2422 3.75 20.5625 4.0312 Q20.8828 4.3125 21.4922 4.3125 Q22.1016 4.3125 22.5781 4.0469 Q23.0547 3.7812 23.2734 3.3125 Q23.4453 2.9531 23.4453 2.2656 L23.4453 1.875 ZM26.1348 5 L26.1348 -1.2188 L27.0879 -1.2188 L27.0879 -0.2812 Q27.4473 -0.9375 27.752 -1.1484 Q28.0566 -1.3594 28.4316 -1.3594 Q28.9629 -1.3594 29.5098 -1.0312 L29.1504 -0.0469 Q28.7598 -0.2812 28.3848 -0.2812 Q28.0254 -0.2812 27.752 -0.0703 Q27.4785 0.1406 27.3691 0.5156 Q27.1816 1.0781 27.1816 1.7344 L27.1816 5 L26.1348 5 ZM30.1465 -2.375 L30.1465 -3.5938 L31.209 -3.5938 L31.209 -2.375 L30.1465 -2.375 ZM30.1465 5 L30.1465 -1.2188 L31.209 -1.2188 L31.209 5 L30.1465 5 ZM32.25 5 L32.25 4.1406 L36.2188 -0.4062 Q35.5312 -0.375 35.0156 -0.375 L32.4844 -0.375 L32.4844 -1.2188 L37.5781 -1.2188 L37.5781 -0.5312 L34.2031 3.4219 L33.5469 4.1406 Q34.2656 4.0938 34.875 4.0938 L37.7656 4.0938 L37.7656 5 L32.25 5 ZM38.4219 1.8906 Q38.4219 0.1562 39.375 -0.6719 Q40.1719 -1.3594 41.3281 -1.3594 Q42.6094 -1.3594 43.4297 -0.5234 Q44.25 0.3125 44.25 1.7969 Q44.25 3 43.8906 3.6875 Q43.5312 4.375 42.8359 4.7578 Q42.1406 5.1406 41.3281 5.1406 Q40.0312 5.1406 39.2266 4.3047 Q38.4219 3.4688 38.4219 1.8906 ZM39.5 1.8906 Q39.5 3.0781 40.0234 3.6719 Q40.5469 4.2656 41.3281 4.2656 Q42.125 4.2656 42.6406 3.6719 Q43.1562 3.0781 43.1562 1.8594 Q43.1562 0.7031 42.6328 0.1094 Q42.1094 -0.4844 41.3281 -0.4844 Q40.5469 -0.4844 40.0234 0.1016 Q39.5 0.6875 39.5 1.8906 ZM47.2051 5 L44.8457 -1.2188 L45.9551 -1.2188 L47.2988 2.5 Q47.502 3.1094 47.6895 3.75 Q47.8301 3.2656 48.0801 2.5781 L49.4707 -1.2188 L50.5488 -1.2188 L48.1895 5 L47.2051 5 ZM55.5488 4.2344 Q54.9551 4.7344 54.416 4.9375 Q53.877 5.1406 53.252 5.1406 Q52.2207 5.1406 51.6738 4.6406 Q51.127 4.1406 51.127 3.3594 Q51.127 2.9062 51.3301 2.5234 Q51.5332 2.1406 51.877 1.9141 Q52.2207 1.6875 52.6426 1.5781 Q52.9395 1.4844 53.5801 1.4062 Q54.8457 1.2656 55.4551 1.0469 Q55.4551 0.8281 55.4551 0.7812 Q55.4551 0.125 55.1582 -0.1406 Q54.752 -0.4844 53.9551 -0.4844 Q53.2207 -0.4844 52.8613 -0.2266 Q52.502 0.0312 52.3301 0.6875 L51.2988 0.5469 Q51.4395 -0.1094 51.7676 -0.5156 Q52.0957 -0.9219 52.7051 -1.1406 Q53.3145 -1.3594 54.1113 -1.3594 Q54.9082 -1.3594 55.4082 -1.1719 Q55.9082 -0.9844 56.1426 -0.7031 Q56.377 -0.4219 56.4707 0.0156 Q56.5176 0.2812 56.5176 0.9844 L56.5176 2.3906 Q56.5176 3.8594 56.5879 4.25 Q56.6582 4.6406 56.8613 5 L55.752 5 Q55.5957 4.6719 55.5488 4.2344 ZM55.4551 1.875 Q54.877 2.1094 53.7363 2.2812 Q53.0801 2.375 52.8145 2.4922 Q52.5488 2.6094 52.4004 2.8281 Q52.252 3.0469 52.252 3.3281 Q52.252 3.75 52.5723 4.0312 Q52.8926 4.3125 53.502 4.3125 Q54.1113 4.3125 54.5879 4.0469 Q55.0645 3.7812 55.2832 3.3125 Q55.4551 2.9531 55.4551 2.2656 L55.4551 1.875 ZM58.1602 5 L58.1602 -1.2188 L59.0977 -1.2188 L59.0977 -0.3438 Q59.7852 -1.3594 61.082 -1.3594 Q61.6445 -1.3594 62.1211 -1.1562 Q62.5977 -0.9531 62.832 -0.625 Q63.0664 -0.2969 63.1602 0.1406 Q63.207 0.4375 63.207 1.1719 L63.207 5 L62.1602 5 L62.1602 1.2188 Q62.1602 0.5625 62.0352 0.25 Q61.9102 -0.0625 61.5977 -0.2578 Q61.2852 -0.4531 60.8633 -0.4531 Q60.1914 -0.4531 59.6992 -0.0234 Q59.207 0.4062 59.207 1.5938 L59.207 5 L58.1602 5 ZM64.7871 7.3906 L64.6621 6.4062 Q65.0059 6.5 65.2715 6.5 Q65.6152 6.5 65.8262 6.3828 Q66.0371 6.2656 66.1777 6.0625 Q66.2715 5.8906 66.5059 5.2656 Q66.5215 5.1875 66.5996 5.0156 L64.2246 -1.2188 L65.3652 -1.2188 L66.6621 2.375 Q66.9121 3.0625 67.1152 3.8281 Q67.3027 3.0938 67.5527 2.4062 L68.8809 -1.2188 L69.9277 -1.2188 L67.5684 5.1094 Q67.1777 6.125 66.9746 6.5156 Q66.6934 7.0469 66.3262 7.2891 Q65.959 7.5312 65.459 7.5312 Q65.1621 7.5312 64.7871 7.3906 ZM66.1621 -3 L66.9434 -4.6406 L68.334 -4.6406 L67.0371 -3 L66.1621 -3 ZM74.168 5 L74.168 -1.2188 L75.1055 -1.2188 L75.1055 -0.3438 Q75.4023 -0.8125 75.8867 -1.0859 Q76.3711 -1.3594 76.9961 -1.3594 Q77.6836 -1.3594 78.1289 -1.0781 Q78.5742 -0.7969 78.7461 -0.2812 Q79.4961 -1.3594 80.668 -1.3594 Q81.6055 -1.3594 82.0977 -0.8516 Q82.5898 -0.3438 82.5898 0.7344 L82.5898 5 L81.543 5 L81.543 1.0781 Q81.543 0.4531 81.4414 0.1719 Q81.3398 -0.1094 81.0742 -0.2812 Q80.8086 -0.4531 80.4336 -0.4531 Q79.7773 -0.4531 79.3477 -0.0156 Q78.918 0.4219 78.918 1.3906 L78.918 5 L77.8555 5 L77.8555 0.9531 Q77.8555 0.25 77.5977 -0.1016 Q77.3398 -0.4531 76.7617 -0.4531 Q76.3086 -0.4531 75.9336 -0.2188 Q75.5586 0.0156 75.3867 0.4688 Q75.2148 0.9219 75.2148 1.7656 L75.2148 5 L74.168 5 ZM83.7734 1.8906 Q83.7734 0.1562 84.7266 -0.6719 Q85.5234 -1.3594 86.6797 -1.3594 Q87.9609 -1.3594 88.7812 -0.5234 Q89.6016 0.3125 89.6016 1.7969 Q89.6016 3 89.2422 3.6875 Q88.8828 4.375 88.1875 4.7578 Q87.4922 5.1406 86.6797 5.1406 Q85.3828 5.1406 84.5781 4.3047 Q83.7734 3.4688 83.7734 1.8906 ZM84.8516 1.8906 Q84.8516 3.0781 85.375 3.6719 Q85.8984 4.2656 86.6797 4.2656 Q87.4766 4.2656 87.9922 3.6719 Q88.5078 3.0781 88.5078 1.8594 Q88.5078 0.7031 87.9844 0.1094 Q87.4609 -0.4844 86.6797 -0.4844 Q85.8984 -0.4844 85.375 0.1016 Q84.8516 0.6875 84.8516 1.8906 ZM94.8691 5 L94.8691 4.2188 Q94.2754 5.1406 93.1348 5.1406 Q92.3848 5.1406 91.7598 4.7266 Q91.1348 4.3125 90.791 3.5781 Q90.4473 2.8438 90.4473 1.8906 Q90.4473 0.9688 90.7598 0.2031 Q91.0723 -0.5625 91.6973 -0.9609 Q92.3223 -1.3594 93.0879 -1.3594 Q93.6504 -1.3594 94.0879 -1.125 Q94.5254 -0.8906 94.8066 -0.5156 L94.8066 -3.5938 L95.8535 -3.5938 L95.8535 5 L94.8691 5 ZM91.541 1.8906 Q91.541 3.0938 92.041 3.6797 Q92.541 4.2656 93.2285 4.2656 Q93.916 4.2656 94.4004 3.7031 Q94.8848 3.1406 94.8848 1.9844 Q94.8848 0.7031 94.3926 0.1094 Q93.9004 -0.4844 93.1816 -0.4844 Q92.4785 -0.4844 92.0098 0.0859 Q91.541 0.6562 91.541 1.8906 ZM101.7617 3 L102.8555 3.125 Q102.6055 4.0781 101.9023 4.6094 Q101.1992 5.1406 100.1211 5.1406 Q98.7617 5.1406 97.957 4.2969 Q97.1523 3.4531 97.1523 1.9375 Q97.1523 0.375 97.9648 -0.4922 Q98.7773 -1.3594 100.0586 -1.3594 Q101.3086 -1.3594 102.0977 -0.5156 Q102.8867 0.3281 102.8867 1.875 Q102.8867 1.9688 102.8867 2.1562 L98.2461 2.1562 Q98.3086 3.1875 98.8242 3.7266 Q99.3398 4.2656 100.1211 4.2656 Q100.6992 4.2656 101.1133 3.9609 Q101.5273 3.6562 101.7617 3 ZM98.3086 1.2969 L101.7773 1.2969 Q101.7148 0.5 101.3867 0.1094 Q100.8711 -0.5 100.0742 -0.5 Q99.3398 -0.5 98.8477 -0.0156 Q98.3555 0.4688 98.3086 1.2969 ZM104.1543 5 L104.1543 -3.5938 L105.2168 -3.5938 L105.2168 5 L104.1543 5 Z"
    /></g
    ><g style="stroke-linecap:butt; fill:rgb(0,114,189); text-rendering:geometricPrecision; image-rendering:optimizeQuality; color-rendering:optimizeQuality; stroke-linejoin:round; stroke:rgb(0,114,189); color-interpolation:linearRGB; stroke-width:0.6667;"
    ><line y2="51.863" style="fill:none;" x1="342" x2="382" y1="51.863"
    /></g
    ><g style="text-rendering:geometricPrecision; color-rendering:optimizeQuality; color-interpolation:linearRGB; image-rendering:optimizeQuality;" transform="translate(385,68.137)"
    ><path style="stroke:none;" d="M0.7969 5 L0.7969 -1.2188 L1.7344 -1.2188 L1.7344 -0.3438 Q2.4219 -1.3594 3.7188 -1.3594 Q4.2812 -1.3594 4.7578 -1.1562 Q5.2344 -0.9531 5.4688 -0.625 Q5.7031 -0.2969 5.7969 0.1406 Q5.8438 0.4375 5.8438 1.1719 L5.8438 5 L4.7969 5 L4.7969 1.2188 Q4.7969 0.5625 4.6719 0.25 Q4.5469 -0.0625 4.2344 -0.2578 Q3.9219 -0.4531 3.5 -0.4531 Q2.8281 -0.4531 2.3359 -0.0234 Q1.8438 0.4062 1.8438 1.5938 L1.8438 5 L0.7969 5 ZM11.7207 3 L12.8145 3.125 Q12.5645 4.0781 11.8613 4.6094 Q11.1582 5.1406 10.0801 5.1406 Q8.7207 5.1406 7.916 4.2969 Q7.1113 3.4531 7.1113 1.9375 Q7.1113 0.375 7.9238 -0.4922 Q8.7363 -1.3594 10.0176 -1.3594 Q11.2676 -1.3594 12.0566 -0.5156 Q12.8457 0.3281 12.8457 1.875 Q12.8457 1.9688 12.8457 2.1562 L8.2051 2.1562 Q8.2676 3.1875 8.7832 3.7266 Q9.2988 4.2656 10.0801 4.2656 Q10.6582 4.2656 11.0723 3.9609 Q11.4863 3.6562 11.7207 3 ZM8.2676 1.2969 L11.7363 1.2969 Q11.6738 0.5 11.3457 0.1094 Q10.8301 -0.5 10.0332 -0.5 Q9.2988 -0.5 8.8066 -0.0156 Q8.3145 0.4688 8.2676 1.2969 ZM14.1133 5 L14.1133 -3.5938 L15.1758 -3.5938 L15.1758 5 L14.1133 5 ZM16.8105 -2.375 L16.8105 -3.5938 L17.873 -3.5938 L17.873 -2.375 L16.8105 -2.375 ZM16.8105 5 L16.8105 -1.2188 L17.873 -1.2188 L17.873 5 L16.8105 5 ZM19.4766 5 L19.4766 -1.2188 L20.4141 -1.2188 L20.4141 -0.3438 Q21.1016 -1.3594 22.3984 -1.3594 Q22.9609 -1.3594 23.4375 -1.1562 Q23.9141 -0.9531 24.1484 -0.625 Q24.3828 -0.2969 24.4766 0.1406 Q24.5234 0.4375 24.5234 1.1719 L24.5234 5 L23.4766 5 L23.4766 1.2188 Q23.4766 0.5625 23.3516 0.25 Q23.2266 -0.0625 22.9141 -0.2578 Q22.6016 -0.4531 22.1797 -0.4531 Q21.5078 -0.4531 21.0156 -0.0234 Q20.5234 0.4062 20.5234 1.5938 L20.5234 5 L19.4766 5 ZM30.4004 3 L31.4941 3.125 Q31.2441 4.0781 30.541 4.6094 Q29.8379 5.1406 28.7598 5.1406 Q27.4004 5.1406 26.5957 4.2969 Q25.791 3.4531 25.791 1.9375 Q25.791 0.375 26.6035 -0.4922 Q27.416 -1.3594 28.6973 -1.3594 Q29.9473 -1.3594 30.7363 -0.5156 Q31.5254 0.3281 31.5254 1.875 Q31.5254 1.9688 31.5254 2.1562 L26.8848 2.1562 Q26.9473 3.1875 27.4629 3.7266 Q27.9785 4.2656 28.7598 4.2656 Q29.3379 4.2656 29.752 3.9609 Q30.166 3.6562 30.4004 3 ZM26.9473 1.2969 L30.416 1.2969 Q30.3535 0.5 30.0254 0.1094 Q29.5098 -0.5 28.7129 -0.5 Q27.9785 -0.5 27.4863 -0.0156 Q26.9941 0.4688 26.9473 1.2969 ZM36.8867 4.2344 Q36.293 4.7344 35.7539 4.9375 Q35.2148 5.1406 34.5898 5.1406 Q33.5586 5.1406 33.0117 4.6406 Q32.4648 4.1406 32.4648 3.3594 Q32.4648 2.9062 32.668 2.5234 Q32.8711 2.1406 33.2148 1.9141 Q33.5586 1.6875 33.9805 1.5781 Q34.2773 1.4844 34.918 1.4062 Q36.1836 1.2656 36.793 1.0469 Q36.793 0.8281 36.793 0.7812 Q36.793 0.125 36.4961 -0.1406 Q36.0898 -0.4844 35.293 -0.4844 Q34.5586 -0.4844 34.1992 -0.2266 Q33.8398 0.0312 33.668 0.6875 L32.6367 0.5469 Q32.7773 -0.1094 33.1055 -0.5156 Q33.4336 -0.9219 34.043 -1.1406 Q34.6523 -1.3594 35.4492 -1.3594 Q36.2461 -1.3594 36.7461 -1.1719 Q37.2461 -0.9844 37.4805 -0.7031 Q37.7148 -0.4219 37.8086 0.0156 Q37.8555 0.2812 37.8555 0.9844 L37.8555 2.3906 Q37.8555 3.8594 37.9258 4.25 Q37.9961 4.6406 38.1992 5 L37.0898 5 Q36.9336 4.6719 36.8867 4.2344 ZM36.793 1.875 Q36.2148 2.1094 35.0742 2.2812 Q34.418 2.375 34.1523 2.4922 Q33.8867 2.6094 33.7383 2.8281 Q33.5898 3.0469 33.5898 3.3281 Q33.5898 3.75 33.9102 4.0312 Q34.2305 4.3125 34.8398 4.3125 Q35.4492 4.3125 35.9258 4.0469 Q36.4023 3.7812 36.6211 3.3125 Q36.793 2.9531 36.793 2.2656 L36.793 1.875 ZM34.1523 -3 L34.9336 -4.6406 L36.3242 -4.6406 L35.0273 -3 L34.1523 -3 ZM39.4824 5 L39.4824 -1.2188 L40.4355 -1.2188 L40.4355 -0.2812 Q40.7949 -0.9375 41.0996 -1.1484 Q41.4043 -1.3594 41.7793 -1.3594 Q42.3105 -1.3594 42.8574 -1.0312 L42.498 -0.0469 Q42.1074 -0.2812 41.7324 -0.2812 Q41.373 -0.2812 41.0996 -0.0703 Q40.8262 0.1406 40.7168 0.5156 Q40.5293 1.0781 40.5293 1.7344 L40.5293 5 L39.4824 5 ZM43.4941 5 L43.4941 -1.2188 L44.4316 -1.2188 L44.4316 -0.3438 Q45.1191 -1.3594 46.416 -1.3594 Q46.9785 -1.3594 47.4551 -1.1562 Q47.9316 -0.9531 48.166 -0.625 Q48.4004 -0.2969 48.4941 0.1406 Q48.541 0.4375 48.541 1.1719 L48.541 5 L47.4941 5 L47.4941 1.2188 Q47.4941 0.5625 47.3691 0.25 Q47.2441 -0.0625 46.9316 -0.2578 Q46.6191 -0.4531 46.1973 -0.4531 Q45.5254 -0.4531 45.0332 -0.0234 Q44.541 0.4062 44.541 1.5938 L44.541 5 L43.4941 5 ZM50.5273 5 L50.5273 -1.2188 L51.5898 -1.2188 L51.5898 5 L50.5273 5 ZM50.4961 -3 L51.2773 -4.6406 L52.668 -4.6406 L51.3711 -3 L50.4961 -3 ZM56.8359 5 L56.8359 -1.2188 L57.7734 -1.2188 L57.7734 -0.3438 Q58.0703 -0.8125 58.5547 -1.0859 Q59.0391 -1.3594 59.6641 -1.3594 Q60.3516 -1.3594 60.7969 -1.0781 Q61.2422 -0.7969 61.4141 -0.2812 Q62.1641 -1.3594 63.3359 -1.3594 Q64.2734 -1.3594 64.7656 -0.8516 Q65.2578 -0.3438 65.2578 0.7344 L65.2578 5 L64.2109 5 L64.2109 1.0781 Q64.2109 0.4531 64.1094 0.1719 Q64.0078 -0.1094 63.7422 -0.2812 Q63.4766 -0.4531 63.1016 -0.4531 Q62.4453 -0.4531 62.0156 -0.0156 Q61.5859 0.4219 61.5859 1.3906 L61.5859 5 L60.5234 5 L60.5234 0.9531 Q60.5234 0.25 60.2656 -0.1016 Q60.0078 -0.4531 59.4297 -0.4531 Q58.9766 -0.4531 58.6016 -0.2188 Q58.2266 0.0156 58.0547 0.4688 Q57.8828 0.9219 57.8828 1.7656 L57.8828 5 L56.8359 5 ZM66.4414 1.8906 Q66.4414 0.1562 67.3945 -0.6719 Q68.1914 -1.3594 69.3477 -1.3594 Q70.6289 -1.3594 71.4492 -0.5234 Q72.2695 0.3125 72.2695 1.7969 Q72.2695 3 71.9102 3.6875 Q71.5508 4.375 70.8555 4.7578 Q70.1602 5.1406 69.3477 5.1406 Q68.0508 5.1406 67.2461 4.3047 Q66.4414 3.4688 66.4414 1.8906 ZM67.5195 1.8906 Q67.5195 3.0781 68.043 3.6719 Q68.5664 4.2656 69.3477 4.2656 Q70.1445 4.2656 70.6602 3.6719 Q71.1758 3.0781 71.1758 1.8594 Q71.1758 0.7031 70.6523 0.1094 Q70.1289 -0.4844 69.3477 -0.4844 Q68.5664 -0.4844 68.043 0.1016 Q67.5195 0.6875 67.5195 1.8906 ZM77.5371 5 L77.5371 4.2188 Q76.9434 5.1406 75.8027 5.1406 Q75.0527 5.1406 74.4277 4.7266 Q73.8027 4.3125 73.459 3.5781 Q73.1152 2.8438 73.1152 1.8906 Q73.1152 0.9688 73.4277 0.2031 Q73.7402 -0.5625 74.3652 -0.9609 Q74.9902 -1.3594 75.7559 -1.3594 Q76.3184 -1.3594 76.7559 -1.125 Q77.1934 -0.8906 77.4746 -0.5156 L77.4746 -3.5938 L78.5215 -3.5938 L78.5215 5 L77.5371 5 ZM74.209 1.8906 Q74.209 3.0938 74.709 3.6797 Q75.209 4.2656 75.8965 4.2656 Q76.584 4.2656 77.0684 3.7031 Q77.5527 3.1406 77.5527 1.9844 Q77.5527 0.7031 77.0605 0.1094 Q76.5684 -0.4844 75.8496 -0.4844 Q75.1465 -0.4844 74.6777 0.0859 Q74.209 0.6562 74.209 1.8906 ZM84.4297 3 L85.5234 3.125 Q85.2734 4.0781 84.5703 4.6094 Q83.8672 5.1406 82.7891 5.1406 Q81.4297 5.1406 80.625 4.2969 Q79.8203 3.4531 79.8203 1.9375 Q79.8203 0.375 80.6328 -0.4922 Q81.4453 -1.3594 82.7266 -1.3594 Q83.9766 -1.3594 84.7656 -0.5156 Q85.5547 0.3281 85.5547 1.875 Q85.5547 1.9688 85.5547 2.1562 L80.9141 2.1562 Q80.9766 3.1875 81.4922 3.7266 Q82.0078 4.2656 82.7891 4.2656 Q83.3672 4.2656 83.7812 3.9609 Q84.1953 3.6562 84.4297 3 ZM80.9766 1.2969 L84.4453 1.2969 Q84.3828 0.5 84.0547 0.1094 Q83.5391 -0.5 82.7422 -0.5 Q82.0078 -0.5 81.5156 -0.0156 Q81.0234 0.4688 80.9766 1.2969 ZM86.8223 5 L86.8223 -3.5938 L87.8848 -3.5938 L87.8848 5 L86.8223 5 Z"
    /></g
    ><g style="stroke-linecap:butt; fill:rgb(217,83,25); text-rendering:geometricPrecision; image-rendering:optimizeQuality; color-rendering:optimizeQuality; stroke-linejoin:round; stroke:rgb(217,83,25); color-interpolation:linearRGB; stroke-width:0.6667;"
    ><line y2="68.137" style="fill:none;" x1="342" x2="382" y1="68.137"
      /><path d="M338 78 L338 42 L496 42 L496 78 Z" style="fill:none; fill-rule:evenodd; stroke:rgb(38,38,38); stroke-linejoin:miter;"
    /></g
  ></g
></svg
>
